PWD /Users/sabber/Desktop/codes/NewDynearh/JGR_documents
INPUT /usr/local/texlive/2013/texmf.cnf
INPUT /usr/local/texlive/2013/texmf-dist/web2c/texmf.cnf
INPUT /usr/local/texlive/2013/texmf-var/web2c/pdftex/pdflatex.fmt
INPUT /Users/sabber/Desktop/codes/NewDynearh/JGR_documents/agutmpl.tex
OUTPUT Output/agutmpl.log
INPUT agutex.cls
INPUT agutex.cls
INPUT /usr/local/texlive/2013/texmf-dist/fonts/map/fontname/texfonts.map
INPUT /usr/local/texlive/2013/texmf-dist/fonts/map/fontname/texfonts.map
INPUT /usr/local/texlive/2013/texmf-dist/fonts/tfm/public/cm/cmbx10.tfm
INPUT /usr/local/texlive/2013/texmf-dist/fonts/tfm/public/cm/cmbx10.tfm
INPUT /usr/local/texlive/2013/texmf-dist/fonts/tfm/public/cm/cmbx10.tfm
INPUT /usr/local/texlive/2013/texmf-dist/fonts/tfm/public/cm/cmr10.tfm
INPUT /usr/local/texlive/2013/texmf-dist/fonts/tfm/public/cm/cmr10.tfm
INPUT /usr/local/texlive/2013/texmf-dist/fonts/tfm/public/cm/cmss10.tfm
INPUT /usr/local/texlive/2013/texmf-dist/fonts/tfm/public/cm/cmbx10.tfm
INPUT /usr/local/texlive/2013/texmf-dist/fonts/tfm/public/cm/cmss10.tfm
INPUT /usr/local/texlive/2013/texmf-dist/fonts/tfm/public/cm/cmss10.tfm
INPUT /usr/local/texlive/2013/texmf-dist/fonts/tfm/public/cm/cmr10.tfm
INPUT /usr/local/texlive/2013/texmf-dist/fonts/tfm/public/cm/cmr10.tfm
INPUT /usr/local/texlive/2013/texmf-dist/fonts/tfm/public/cm/cmti10.tfm
INPUT /usr/local/texlive/2013/texmf-dist/fonts/tfm/public/cm/cmcsc10.tfm
INPUT /usr/local/texlive/2013/texmf-dist/fonts/tfm/public/cm/cmss10.tfm
INPUT /usr/local/texlive/2013/texmf-dist/fonts/tfm/public/cm/cmbx10.tfm
INPUT /usr/local/texlive/2013/texmf-dist/fonts/tfm/public/cm/cmbx10.tfm
INPUT /usr/local/texlive/2013/texmf-dist/tex/latex/graphics/graphicx.sty
INPUT /usr/local/texlive/2013/texmf-dist/tex/latex/graphics/graphicx.sty
INPUT /usr/local/texlive/2013/texmf-dist/tex/latex/graphics/keyval.sty
INPUT /usr/local/texlive/2013/texmf-dist/tex/latex/graphics/keyval.sty
INPUT /usr/local/texlive/2013/texmf-dist/tex/latex/graphics/graphics.sty
INPUT /usr/local/texlive/2013/texmf-dist/tex/latex/graphics/graphics.sty
INPUT /usr/local/texlive/2013/texmf-dist/tex/latex/graphics/trig.sty
INPUT /usr/local/texlive/2013/texmf-dist/tex/latex/graphics/trig.sty
INPUT /usr/local/texlive/2013/texmf-dist/tex/latex/latexconfig/graphics.cfg
INPUT /usr/local/texlive/2013/texmf-dist/tex/latex/latexconfig/graphics.cfg
INPUT /usr/local/texlive/2013/texmf-dist/tex/latex/pdftex-def/pdftex.def
INPUT /usr/local/texlive/2013/texmf-dist/tex/latex/pdftex-def/pdftex.def
INPUT /usr/local/texlive/2013/texmf-dist/tex/generic/oberdiek/infwarerr.sty
INPUT /usr/local/texlive/2013/texmf-dist/tex/generic/oberdiek/infwarerr.sty
INPUT /usr/local/texlive/2013/texmf-dist/tex/generic/oberdiek/ltxcmds.sty
INPUT /usr/local/texlive/2013/texmf-dist/tex/generic/oberdiek/ltxcmds.sty
INPUT /usr/local/texlive/2013/texmf-dist/tex/latex/amsmath/amsmath.sty
INPUT /usr/local/texlive/2013/texmf-dist/tex/latex/amsmath/amsmath.sty
INPUT /usr/local/texlive/2013/texmf-dist/tex/latex/amsmath/amstext.sty
INPUT /usr/local/texlive/2013/texmf-dist/tex/latex/amsmath/amstext.sty
INPUT /usr/local/texlive/2013/texmf-dist/tex/latex/amsmath/amsgen.sty
INPUT /usr/local/texlive/2013/texmf-dist/tex/latex/amsmath/amsgen.sty
INPUT /usr/local/texlive/2013/texmf-dist/tex/latex/amsmath/amsbsy.sty
INPUT /usr/local/texlive/2013/texmf-dist/tex/latex/amsmath/amsbsy.sty
INPUT /usr/local/texlive/2013/texmf-dist/tex/latex/amsmath/amsopn.sty
INPUT /usr/local/texlive/2013/texmf-dist/tex/latex/amsmath/amsopn.sty
INPUT /usr/local/texlive/2013/texmf-dist/tex/latex/float/float.sty
INPUT /usr/local/texlive/2013/texmf-dist/tex/latex/float/float.sty
INPUT /usr/local/texlive/2013/texmf-dist/tex/latex/lineno/lineno.sty
INPUT /usr/local/texlive/2013/texmf-dist/tex/latex/lineno/lineno.sty
INPUT /usr/local/texlive/2013/texmf-dist/tex/latex/graphics/color.sty
INPUT /usr/local/texlive/2013/texmf-dist/tex/latex/graphics/color.sty
INPUT /usr/local/texlive/2013/texmf-dist/tex/latex/latexconfig/color.cfg
INPUT /usr/local/texlive/2013/texmf-dist/tex/latex/latexconfig/color.cfg
INPUT trackchanges.sty
INPUT trackchanges.sty
INPUT /usr/local/texlive/2013/texmf-dist/tex/latex/base/ifthen.sty
INPUT /usr/local/texlive/2013/texmf-dist/tex/latex/base/ifthen.sty
INPUT /usr/local/texlive/2013/texmf-dist/tex/latex/tools/calc.sty
INPUT /usr/local/texlive/2013/texmf-dist/tex/latex/tools/calc.sty
INPUT /usr/local/texlive/2013/texmf-dist/tex/latex/soul/soul.sty
INPUT /usr/local/texlive/2013/texmf-dist/tex/latex/soul/soul.sty
INPUT /usr/local/texlive/2013/texmf-dist/fonts/tfm/jknappen/ec/ectt1000.tfm
INPUT /usr/local/texlive/2013/texmf-dist/tex/latex/morefloats/morefloats.sty
INPUT /usr/local/texlive/2013/texmf-dist/tex/latex/morefloats/morefloats.sty
INPUT /usr/local/texlive/2013/texmf-dist/tex/latex/oberdiek/kvoptions.sty
INPUT /usr/local/texlive/2013/texmf-dist/tex/latex/oberdiek/kvoptions.sty
INPUT /usr/local/texlive/2013/texmf-dist/tex/generic/oberdiek/kvsetkeys.sty
INPUT /usr/local/texlive/2013/texmf-dist/tex/generic/oberdiek/kvsetkeys.sty
INPUT /usr/local/texlive/2013/texmf-dist/tex/generic/oberdiek/etexcmds.sty
INPUT /usr/local/texlive/2013/texmf-dist/tex/generic/oberdiek/etexcmds.sty
INPUT /usr/local/texlive/2013/texmf-dist/tex/generic/oberdiek/ifluatex.sty
INPUT /usr/local/texlive/2013/texmf-dist/tex/generic/oberdiek/ifluatex.sty
INPUT Output/agutmpl.aux
INPUT Output/agutmpl.aux
OUTPUT Output/agutmpl.aux
INPUT /usr/local/texlive/2013/texmf-dist/fonts/tfm/public/cm/cmr12.tfm
INPUT /usr/local/texlive/2013/texmf-dist/tex/context/base/supp-pdf.mkii
INPUT /usr/local/texlive/2013/texmf-dist/tex/context/base/supp-pdf.mkii
INPUT /usr/local/texlive/2013/texmf-dist/tex/generic/oberdiek/pdftexcmds.sty
INPUT /usr/local/texlive/2013/texmf-dist/tex/generic/oberdiek/pdftexcmds.sty
INPUT /usr/local/texlive/2013/texmf-dist/tex/generic/oberdiek/ifpdf.sty
INPUT /usr/local/texlive/2013/texmf-dist/tex/generic/oberdiek/ifpdf.sty
INPUT /usr/local/texlive/2013/texmf-dist/tex/latex/oberdiek/epstopdf-base.sty
INPUT /usr/local/texlive/2013/texmf-dist/tex/latex/oberdiek/epstopdf-base.sty
INPUT /usr/local/texlive/2013/texmf-dist/tex/latex/oberdiek/grfext.sty
INPUT /usr/local/texlive/2013/texmf-dist/tex/latex/oberdiek/grfext.sty
INPUT /usr/local/texlive/2013/texmf-dist/tex/generic/oberdiek/kvdefinekeys.sty
INPUT /usr/local/texlive/2013/texmf-dist/tex/generic/oberdiek/kvdefinekeys.sty
INPUT /usr/local/texlive/2013/texmf-dist/tex/latex/latexconfig/epstopdf-sys.cfg
INPUT /usr/local/texlive/2013/texmf-dist/tex/latex/latexconfig/epstopdf-sys.cfg
INPUT /usr/local/texlive/2013/texmf-dist/fonts/tfm/public/cm/cmr12.tfm
INPUT /usr/local/texlive/2013/texmf-dist/fonts/tfm/public/cm/cmr17.tfm
INPUT /usr/local/texlive/2013/texmf-dist/fonts/tfm/public/cm/cmbx12.tfm
INPUT /usr/local/texlive/2013/texmf-dist/fonts/tfm/public/cm/cmss8.tfm
INPUT /usr/local/texlive/2013/texmf-dist/fonts/tfm/public/cm/cmr8.tfm
INPUT /usr/local/texlive/2013/texmf-dist/fonts/tfm/public/cm/cmr6.tfm
INPUT /usr/local/texlive/2013/texmf-dist/fonts/tfm/public/cm/cmmi12.tfm
INPUT /usr/local/texlive/2013/texmf-dist/fonts/tfm/public/cm/cmmi8.tfm
INPUT /usr/local/texlive/2013/texmf-dist/fonts/tfm/public/cm/cmmi6.tfm
INPUT /usr/local/texlive/2013/texmf-dist/fonts/tfm/public/cm/cmsy10.tfm
INPUT /usr/local/texlive/2013/texmf-dist/fonts/tfm/public/cm/cmsy8.tfm
INPUT /usr/local/texlive/2013/texmf-dist/fonts/tfm/public/cm/cmsy6.tfm
INPUT /usr/local/texlive/2013/texmf-dist/fonts/tfm/public/cm/cmex10.tfm
INPUT /usr/local/texlive/2013/texmf-dist/fonts/tfm/public/amsfonts/cmextra/cmex8.tfm
INPUT /usr/local/texlive/2013/texmf-dist/fonts/tfm/public/amsfonts/cmextra/cmex7.tfm
INPUT /usr/local/texlive/2013/texmf-dist/fonts/tfm/public/cm/cmtt12.tfm
OUTPUT Output/agutmpl.pdf
INPUT /usr/local/texlive/2013/texmf-var/fonts/map/pdftex/updmap/pdftex.map
INPUT /usr/local/texlive/2013/texmf-dist/fonts/tfm/public/cm/cmbx12.tfm
INPUT /usr/local/texlive/2013/texmf-dist/fonts/tfm/public/cm/cmr9.tfm
INPUT /usr/local/texlive/2013/texmf-dist/fonts/tfm/public/cm/cmti12.tfm
INPUT /usr/local/texlive/2013/texmf-dist/fonts/tfm/public/cm/cmbx8.tfm
INPUT /usr/local/texlive/2013/texmf-dist/fonts/tfm/public/cm/cmbx6.tfm
INPUT /usr/local/texlive/2013/texmf-dist/fonts/tfm/public/cm/cmmib10.tfm
INPUT /usr/local/texlive/2013/texmf-dist/fonts/tfm/public/amsfonts/cmextra/cmmib8.tfm
INPUT /usr/local/texlive/2013/texmf-dist/fonts/tfm/public/amsfonts/cmextra/cmmib6.tfm
INPUT /usr/local/texlive/2013/texmf-dist/fonts/tfm/public/cm/cmbsy10.tfm
INPUT /usr/local/texlive/2013/texmf-dist/fonts/tfm/public/amsfonts/cmextra/cmbsy8.tfm
INPUT /usr/local/texlive/2013/texmf-dist/fonts/tfm/public/amsfonts/cmextra/cmbsy6.tfm
INPUT figures/benchmarkDomain.png
INPUT ./figures/benchmarkDomain.png
INPUT ./figures/benchmarkDomain.png
INPUT figures/benchmarkResult.png
INPUT ./figures/benchmarkResult.png
INPUT ./figures/benchmarkResult.png
INPUT figures/faultModelSetup.png
INPUT ./figures/faultModelSetup.png
INPUT ./figures/faultModelSetup.png
INPUT figures/plasticStrain.png
INPUT ./figures/plasticStrain.png
INPUT ./figures/plasticStrain.png
INPUT figures/temperatureDistribution.png
INPUT ./figures/temperatureDistribution.png
INPUT ./figures/temperatureDistribution.png
INPUT Output/agutmpl.bbl
INPUT Output/agutmpl.bbl
INPUT Output/agutmpl.aux
INPUT /usr/local/texlive/2013/texmf-dist/fonts/type1/public/amsfonts/cm/cmbx12.pfb
INPUT /usr/local/texlive/2013/texmf-dist/fonts/type1/public/amsfonts/cm/cmex10.pfb
INPUT /usr/local/texlive/2013/texmf-dist/fonts/type1/public/amsfonts/cm/cmmi12.pfb
INPUT /usr/local/texlive/2013/texmf-dist/fonts/type1/public/amsfonts/cm/cmmi6.pfb
INPUT /usr/local/texlive/2013/texmf-dist/fonts/type1/public/amsfonts/cm/cmmi8.pfb
INPUT /usr/local/texlive/2013/texmf-dist/fonts/type1/public/amsfonts/cm/cmmib10.pfb
INPUT /usr/local/texlive/2013/texmf-dist/fonts/type1/public/amsfonts/cmextra/cmmib8.pfb
INPUT /usr/local/texlive/2013/texmf-dist/fonts/type1/public/amsfonts/cm/cmr10.pfb
INPUT /usr/local/texlive/2013/texmf-dist/fonts/type1/public/amsfonts/cm/cmr12.pfb
INPUT /usr/local/texlive/2013/texmf-dist/fonts/type1/public/amsfonts/cm/cmr8.pfb
INPUT /usr/local/texlive/2013/texmf-dist/fonts/type1/public/amsfonts/cm/cmss8.pfb
INPUT /usr/local/texlive/2013/texmf-dist/fonts/type1/public/amsfonts/cm/cmsy10.pfb
INPUT /usr/local/texlive/2013/texmf-dist/fonts/type1/public/amsfonts/cm/cmsy8.pfb
INPUT /usr/local/texlive/2013/texmf-dist/fonts/type1/public/amsfonts/cm/cmti12.pfb
INPUT /usr/local/texlive/2013/texmf-dist/fonts/type1/public/amsfonts/cm/cmtt12.pfb
