%!PS-Adobe-3.0 EPSF-3.0
%%Title: B3.eps
%%Creator: matplotlib version 2.0.2, http://matplotlib.org/
%%CreationDate: Mon Jan 22 22:42:31 2018
%%Orientation: portrait
%%BoundingBox: -54 216 666 576
%%EndComments
%%BeginProlog
/mpldict 9 dict def
mpldict begin
/m { moveto } bind def
/l { lineto } bind def
/r { rlineto } bind def
/c { curveto } bind def
/cl { closepath } bind def
/box {
m
1 index 0 r
0 exch r
neg 0 r
cl
} bind def
/clipbox {
box
clip
newpath
} bind def
%!PS-Adobe-3.0 Resource-Font
%%Title: DejaVu Sans
%%Copyright: Copyright (c) 2003 by Bitstream, Inc. All Rights Reserved. Copyright (c) 2006 by Tavmjong Bah. All Rights Reserved. DejaVu changes are in public domain 
%%Creator: Converted from TrueType to type 3 by PPR
25 dict begin
/_d{bind def}bind def
/_m{moveto}_d
/_l{lineto}_d
/_cl{closepath eofill}_d
/_c{curveto}_d
/_sc{7 -1 roll{setcachedevice}{pop pop pop pop pop pop}ifelse}_d
/_e{exec}_d
/FontName /DejaVuSans def
/PaintType 0 def
/FontMatrix[.001 0 0 .001 0 0]def
/FontBBox[-1021 -463 1793 1232]def
/FontType 3 def
/Encoding [ /space /percent /parenleft /parenright /hyphen /period /zero /one /two /three /four /five /six /eight /D /E /I /M /P /R /S /a /c /e /h /i /l /m /n /o /p /r /s /t /v /x /y /bar /minus ] def
/FontInfo 10 dict dup begin
/FamilyName (DejaVu Sans) def
/FullName (DejaVu Sans) def
/Notice (Copyright (c) 2003 by Bitstream, Inc. All Rights Reserved. Copyright (c) 2006 by Tavmjong Bah. All Rights Reserved. DejaVu changes are in public domain ) def
/Weight (Book) def
/Version (Version 2.35) def
/ItalicAngle 0.0 def
/isFixedPitch false def
/UnderlinePosition -130 def
/UnderlineThickness 90 def
end readonly def
/CharStrings 39 dict dup begin
/space{318 0 0 0 0 0 _sc
}_d
/percent{{950 0 55 -13 895 742 _sc
727 321 _m
699 321 676 309 660 285 _c
644 261 636 227 636 184 _c
636 142 644 108 660 84 _c
676 60 699 48 727 48 _c
755 48 777 60 793 84 _c
809 108 817 142 817 184 _c
817 226 809 260 793 284 _c
777 308 755 321 727 321 _c
727 383 _m
778 383 819 365 849 329 _c
879 293 895 244 895 184 _c
895 123 879 75 849 40 _c
819 4 778 -13 727 -13 _c
}_e{675 -13 633 4 603 40 _c
573 75 558 123 558 184 _c
558 245 573 293 603 329 _c
633 365 675 383 727 383 _c
223 680 _m
195 680 173 667 157 643 _c
141 619 133 586 133 544 _c
133 500 141 467 157 443 _c
173 419 195 407 223 407 _c
251 407 274 419 290 443 _c
306 467 314 500 314 544 _c
314 586 305 619 289 643 _c
273 667 251 680 223 680 _c
664 742 _m
742 742 _l
286 -13 _l
}_e{208 -13 _l
664 742 _l
223 742 _m
274 742 315 724 346 688 _c
376 652 392 604 392 544 _c
392 482 376 434 346 398 _c
316 362 275 345 223 345 _c
171 345 130 362 100 398 _c
70 434 55 482 55 544 _c
55 604 70 652 100 688 _c
130 724 171 742 223 742 _c
_cl}_e}_d
/parenleft{390 0 86 -131 310 759 _sc
310 759 _m
266 683 234 609 213 536 _c
191 463 181 389 181 314 _c
181 238 191 164 213 91 _c
234 17 266 -56 310 -131 _c
232 -131 _l
183 -54 146 20 122 94 _c
98 168 86 241 86 314 _c
86 386 98 459 122 533 _c
146 607 182 682 232 759 _c
310 759 _l
_cl}_d
/parenright{390 0 80 -131 304 759 _sc
80 759 _m
158 759 _l
206 682 243 607 267 533 _c
291 459 304 386 304 314 _c
304 241 291 168 267 94 _c
243 20 206 -54 158 -131 _c
80 -131 _l
123 -56 155 17 177 91 _c
198 164 209 238 209 314 _c
209 389 198 463 177 536 _c
155 609 123 683 80 759 _c
_cl}_d
/hyphen{361 0 49 234 312 314 _sc
49 314 _m
312 314 _l
312 234 _l
49 234 _l
49 314 _l
_cl}_d
/period{318 0 107 0 210 124 _sc
107 124 _m
210 124 _l
210 0 _l
107 0 _l
107 124 _l
_cl}_d
/zero{636 0 66 -13 570 742 _sc
318 664 _m
267 664 229 639 203 589 _c
177 539 165 464 165 364 _c
165 264 177 189 203 139 _c
229 89 267 64 318 64 _c
369 64 407 89 433 139 _c
458 189 471 264 471 364 _c
471 464 458 539 433 589 _c
407 639 369 664 318 664 _c
318 742 _m
399 742 461 709 505 645 _c
548 580 570 486 570 364 _c
570 241 548 147 505 83 _c
461 19 399 -13 318 -13 _c
236 -13 173 19 130 83 _c
87 147 66 241 66 364 _c
66 486 87 580 130 645 _c
173 709 236 742 318 742 _c
_cl}_d
/one{636 0 110 0 544 729 _sc
124 83 _m
285 83 _l
285 639 _l
110 604 _l
110 694 _l
284 729 _l
383 729 _l
383 83 _l
544 83 _l
544 0 _l
124 0 _l
124 83 _l
_cl}_d
/two{{636 0 73 0 536 742 _sc
192 83 _m
536 83 _l
536 0 _l
73 0 _l
73 83 _l
110 121 161 173 226 239 _c
290 304 331 346 348 365 _c
380 400 402 430 414 455 _c
426 479 433 504 433 528 _c
433 566 419 598 392 622 _c
365 646 330 659 286 659 _c
255 659 222 653 188 643 _c
154 632 117 616 78 594 _c
78 694 _l
118 710 155 722 189 730 _c
223 738 255 742 284 742 _c
}_e{359 742 419 723 464 685 _c
509 647 532 597 532 534 _c
532 504 526 475 515 449 _c
504 422 484 390 454 354 _c
446 344 420 317 376 272 _c
332 227 271 164 192 83 _c
_cl}_e}_d
/three{{636 0 76 -13 556 742 _sc
406 393 _m
453 383 490 362 516 330 _c
542 298 556 258 556 212 _c
556 140 531 84 482 45 _c
432 6 362 -13 271 -13 _c
240 -13 208 -10 176 -4 _c
144 1 110 10 76 22 _c
76 117 _l
103 101 133 89 166 81 _c
198 73 232 69 268 69 _c
330 69 377 81 409 105 _c
441 129 458 165 458 212 _c
458 254 443 288 413 312 _c
383 336 341 349 287 349 _c
}_e{202 349 _l
202 430 _l
291 430 _l
339 430 376 439 402 459 _c
428 478 441 506 441 543 _c
441 580 427 609 401 629 _c
374 649 336 659 287 659 _c
260 659 231 656 200 650 _c
169 644 135 635 98 623 _c
98 711 _l
135 721 170 729 203 734 _c
235 739 266 742 296 742 _c
370 742 429 725 473 691 _c
517 657 539 611 539 553 _c
539 513 527 479 504 451 _c
481 423 448 403 406 393 _c
_cl}_e}_d
/four{636 0 49 0 580 729 _sc
378 643 _m
129 254 _l
378 254 _l
378 643 _l
352 729 _m
476 729 _l
476 254 _l
580 254 _l
580 172 _l
476 172 _l
476 0 _l
378 0 _l
378 172 _l
49 172 _l
49 267 _l
352 729 _l
_cl}_d
/five{{636 0 77 -13 549 729 _sc
108 729 _m
495 729 _l
495 646 _l
198 646 _l
198 467 _l
212 472 227 476 241 478 _c
255 480 270 482 284 482 _c
365 482 429 459 477 415 _c
525 370 549 310 549 234 _c
549 155 524 94 475 51 _c
426 8 357 -13 269 -13 _c
238 -13 207 -10 175 -6 _c
143 -1 111 6 77 17 _c
77 116 _l
106 100 136 88 168 80 _c
199 72 232 69 267 69 _c
}_e{323 69 368 83 401 113 _c
433 143 450 183 450 234 _c
450 284 433 324 401 354 _c
368 384 323 399 267 399 _c
241 399 214 396 188 390 _c
162 384 135 375 108 363 _c
108 729 _l
_cl}_e}_d
/six{{636 0 70 -13 573 742 _sc
330 404 _m
286 404 251 388 225 358 _c
199 328 186 286 186 234 _c
186 181 199 139 225 109 _c
251 79 286 64 330 64 _c
374 64 409 79 435 109 _c
461 139 474 181 474 234 _c
474 286 461 328 435 358 _c
409 388 374 404 330 404 _c
526 713 _m
526 623 _l
501 635 476 644 451 650 _c
425 656 400 659 376 659 _c
310 659 260 637 226 593 _c
}_e{192 549 172 482 168 394 _c
187 422 211 444 240 459 _c
269 474 301 482 336 482 _c
409 482 467 459 509 415 _c
551 371 573 310 573 234 _c
573 159 550 99 506 54 _c
462 9 403 -13 330 -13 _c
246 -13 181 19 137 83 _c
92 147 70 241 70 364 _c
70 479 97 571 152 639 _c
206 707 280 742 372 742 _c
396 742 421 739 447 735 _c
472 730 498 723 526 713 _c
_cl}_e}_d
/eight{{636 0 68 -13 568 742 _sc
318 346 _m
271 346 234 333 207 308 _c
180 283 167 249 167 205 _c
167 161 180 126 207 101 _c
234 76 271 64 318 64 _c
364 64 401 76 428 102 _c
455 127 469 161 469 205 _c
469 249 455 283 429 308 _c
402 333 365 346 318 346 _c
219 388 _m
177 398 144 418 120 447 _c
96 476 85 511 85 553 _c
85 611 105 657 147 691 _c
188 725 245 742 318 742 _c
}_e{390 742 447 725 489 691 _c
530 657 551 611 551 553 _c
551 511 539 476 515 447 _c
491 418 459 398 417 388 _c
464 377 501 355 528 323 _c
554 291 568 251 568 205 _c
568 134 546 80 503 43 _c
459 5 398 -13 318 -13 _c
237 -13 175 5 132 43 _c
89 80 68 134 68 205 _c
68 251 81 291 108 323 _c
134 355 171 377 219 388 _c
183 544 _m
183 506 194 476 218 455 _c
}_e{242 434 275 424 318 424 _c
360 424 393 434 417 455 _c
441 476 453 506 453 544 _c
453 582 441 611 417 632 _c
393 653 360 664 318 664 _c
275 664 242 653 218 632 _c
194 611 183 582 183 544 _c
_cl}_e}_d
/D{770 0 98 0 711 729 _sc
197 648 _m
197 81 _l
316 81 _l
416 81 490 103 537 149 _c
583 195 607 267 607 365 _c
607 463 583 534 537 580 _c
490 625 416 648 316 648 _c
197 648 _l
98 729 _m
301 729 _l
442 729 546 699 612 641 _c
678 582 711 490 711 365 _c
711 239 677 147 611 88 _c
545 29 441 0 301 0 _c
98 0 _l
98 729 _l
_cl}_d
/E{632 0 98 0 568 729 _sc
98 729 _m
559 729 _l
559 646 _l
197 646 _l
197 430 _l
544 430 _l
544 347 _l
197 347 _l
197 83 _l
568 83 _l
568 0 _l
98 0 _l
98 729 _l
_cl}_d
/I{295 0 98 0 197 729 _sc
98 729 _m
197 729 _l
197 0 _l
98 0 _l
98 729 _l
_cl}_d
/M{863 0 98 0 765 729 _sc
98 729 _m
245 729 _l
431 233 _l
618 729 _l
765 729 _l
765 0 _l
669 0 _l
669 640 _l
481 140 _l
382 140 _l
194 640 _l
194 0 _l
98 0 _l
98 729 _l
_cl}_d
/P{603 0 98 0 569 729 _sc
197 648 _m
197 374 _l
321 374 _l
367 374 402 385 427 409 _c
452 433 465 467 465 511 _c
465 555 452 588 427 612 _c
402 636 367 648 321 648 _c
197 648 _l
98 729 _m
321 729 _l
402 729 464 710 506 673 _c
548 636 569 582 569 511 _c
569 439 548 384 506 348 _c
464 311 402 293 321 293 _c
197 293 _l
197 0 _l
98 0 _l
98 729 _l
_cl}_d
/R{{695 0 98 0 666 729 _sc
444 342 _m
465 334 486 319 506 296 _c
526 272 546 240 566 199 _c
666 0 _l
560 0 _l
467 187 _l
443 235 419 268 397 284 _c
374 300 343 308 304 308 _c
197 308 _l
197 0 _l
98 0 _l
98 729 _l
321 729 _l
404 729 466 711 507 677 _c
548 642 569 589 569 519 _c
569 473 558 434 537 404 _c
515 374 484 353 444 342 _c
197 648 _m
197 389 _l
321 389 _l
}_e{368 389 404 400 428 422 _c
452 444 465 476 465 519 _c
465 561 452 593 428 615 _c
404 637 368 648 321 648 _c
197 648 _l
_cl}_e}_d
/S{{635 0 66 -13 579 742 _sc
535 705 _m
535 609 _l
497 627 462 640 429 649 _c
395 657 363 662 333 662 _c
279 662 237 651 208 631 _c
179 610 165 580 165 542 _c
165 510 174 485 194 469 _c
213 452 250 439 304 429 _c
364 417 _l
437 403 491 378 526 343 _c
561 307 579 260 579 201 _c
579 130 555 77 508 41 _c
460 5 391 -13 300 -13 _c
265 -13 228 -9 189 -2 _c
}_e{150 5 110 16 69 32 _c
69 134 _l
109 111 148 94 186 83 _c
224 71 262 66 300 66 _c
356 66 399 77 430 99 _c
460 121 476 152 476 194 _c
476 230 465 258 443 278 _c
421 298 385 313 335 323 _c
275 335 _l
201 349 148 372 115 404 _c
82 435 66 478 66 534 _c
66 598 88 649 134 686 _c
179 723 242 742 322 742 _c
356 742 390 739 426 733 _c
461 727 497 717 535 705 _c
}_e{_cl}_e}_d
/a{{613 0 60 -13 522 560 _sc
343 275 _m
270 275 220 266 192 250 _c
164 233 150 205 150 165 _c
150 133 160 107 181 89 _c
202 70 231 61 267 61 _c
317 61 357 78 387 114 _c
417 149 432 196 432 255 _c
432 275 _l
343 275 _l
522 312 _m
522 0 _l
432 0 _l
432 83 _l
411 49 385 25 355 10 _c
325 -5 287 -13 243 -13 _c
187 -13 142 2 109 33 _c
76 64 60 106 60 159 _c
}_e{60 220 80 266 122 298 _c
163 329 224 345 306 345 _c
432 345 _l
432 354 _l
432 395 418 427 391 450 _c
364 472 326 484 277 484 _c
245 484 215 480 185 472 _c
155 464 127 453 100 439 _c
100 522 _l
132 534 164 544 195 550 _c
226 556 256 560 286 560 _c
365 560 424 539 463 498 _c
502 457 522 395 522 312 _c
_cl}_e}_d
/c{{550 0 55 -13 488 560 _sc
488 526 _m
488 442 _l
462 456 437 466 411 473 _c
385 480 360 484 334 484 _c
276 484 230 465 198 428 _c
166 391 150 339 150 273 _c
150 206 166 154 198 117 _c
230 80 276 62 334 62 _c
360 62 385 65 411 72 _c
437 79 462 90 488 104 _c
488 21 _l
462 9 436 0 410 -5 _c
383 -10 354 -13 324 -13 _c
242 -13 176 12 128 64 _c
}_e{79 115 55 185 55 273 _c
55 362 79 432 128 483 _c
177 534 244 560 330 560 _c
358 560 385 557 411 551 _c
437 545 463 537 488 526 _c
_cl}_e}_d
/e{{615 0 55 -13 562 560 _sc
562 296 _m
562 252 _l
149 252 _l
153 190 171 142 205 110 _c
238 78 284 62 344 62 _c
378 62 412 66 444 74 _c
476 82 509 95 541 113 _c
541 28 _l
509 14 476 3 442 -3 _c
408 -9 373 -13 339 -13 _c
251 -13 182 12 131 62 _c
80 112 55 181 55 268 _c
55 357 79 428 127 481 _c
175 533 241 560 323 560 _c
397 560 455 536 498 489 _c
}_e{540 441 562 377 562 296 _c
472 322 _m
471 371 457 410 431 440 _c
404 469 368 484 324 484 _c
274 484 234 469 204 441 _c
174 413 156 373 152 322 _c
472 322 _l
_cl}_e}_d
/h{634 0 91 0 549 760 _sc
549 330 _m
549 0 _l
459 0 _l
459 327 _l
459 379 448 417 428 443 _c
408 469 378 482 338 482 _c
289 482 251 466 223 435 _c
195 404 181 362 181 309 _c
181 0 _l
91 0 _l
91 760 _l
181 760 _l
181 462 _l
202 494 227 519 257 535 _c
286 551 320 560 358 560 _c
420 560 468 540 500 501 _c
532 462 549 405 549 330 _c
_cl}_d
/i{278 0 94 0 184 760 _sc
94 547 _m
184 547 _l
184 0 _l
94 0 _l
94 547 _l
94 760 _m
184 760 _l
184 646 _l
94 646 _l
94 760 _l
_cl}_d
/l{278 0 94 0 184 760 _sc
94 760 _m
184 760 _l
184 0 _l
94 0 _l
94 760 _l
_cl}_d
/m{{974 0 91 0 889 560 _sc
520 442 _m
542 482 569 511 600 531 _c
631 550 668 560 711 560 _c
767 560 811 540 842 500 _c
873 460 889 403 889 330 _c
889 0 _l
799 0 _l
799 327 _l
799 379 789 418 771 444 _c
752 469 724 482 686 482 _c
639 482 602 466 575 435 _c
548 404 535 362 535 309 _c
535 0 _l
445 0 _l
445 327 _l
445 379 435 418 417 444 _c
398 469 369 482 331 482 _c
}_e{285 482 248 466 221 435 _c
194 404 181 362 181 309 _c
181 0 _l
91 0 _l
91 547 _l
181 547 _l
181 462 _l
201 495 226 520 255 536 _c
283 552 317 560 357 560 _c
397 560 430 550 458 530 _c
486 510 506 480 520 442 _c
_cl}_e}_d
/n{634 0 91 0 549 560 _sc
549 330 _m
549 0 _l
459 0 _l
459 327 _l
459 379 448 417 428 443 _c
408 469 378 482 338 482 _c
289 482 251 466 223 435 _c
195 404 181 362 181 309 _c
181 0 _l
91 0 _l
91 547 _l
181 547 _l
181 462 _l
202 494 227 519 257 535 _c
286 551 320 560 358 560 _c
420 560 468 540 500 501 _c
532 462 549 405 549 330 _c
_cl}_d
/o{612 0 55 -13 557 560 _sc
306 484 _m
258 484 220 465 192 427 _c
164 389 150 338 150 273 _c
150 207 163 156 191 118 _c
219 80 257 62 306 62 _c
354 62 392 80 420 118 _c
448 156 462 207 462 273 _c
462 337 448 389 420 427 _c
392 465 354 484 306 484 _c
306 560 _m
384 560 445 534 490 484 _c
534 433 557 363 557 273 _c
557 183 534 113 490 63 _c
445 12 384 -13 306 -13 _c
227 -13 165 12 121 63 _c
77 113 55 183 55 273 _c
55 363 77 433 121 484 _c
165 534 227 560 306 560 _c
_cl}_d
/p{{635 0 91 -207 580 560 _sc
181 82 _m
181 -207 _l
91 -207 _l
91 547 _l
181 547 _l
181 464 _l
199 496 223 520 252 536 _c
281 552 316 560 356 560 _c
422 560 476 533 518 481 _c
559 428 580 359 580 273 _c
580 187 559 117 518 65 _c
476 13 422 -13 356 -13 _c
316 -13 281 -5 252 10 _c
223 25 199 49 181 82 _c
487 273 _m
487 339 473 390 446 428 _c
418 466 381 485 334 485 _c
}_e{286 485 249 466 222 428 _c
194 390 181 339 181 273 _c
181 207 194 155 222 117 _c
249 79 286 61 334 61 _c
381 61 418 79 446 117 _c
473 155 487 207 487 273 _c
_cl}_e}_d
/r{411 0 91 0 411 560 _sc
411 463 _m
401 469 390 473 378 476 _c
366 478 353 480 339 480 _c
288 480 249 463 222 430 _c
194 397 181 350 181 288 _c
181 0 _l
91 0 _l
91 547 _l
181 547 _l
181 462 _l
199 495 224 520 254 536 _c
284 552 321 560 365 560 _c
371 560 378 559 386 559 _c
393 558 401 557 411 555 _c
411 463 _l
_cl}_d
/s{{521 0 54 -13 472 560 _sc
443 531 _m
443 446 _l
417 458 391 468 364 475 _c
336 481 308 485 279 485 _c
234 485 200 478 178 464 _c
156 450 145 430 145 403 _c
145 382 153 366 169 354 _c
185 342 217 330 265 320 _c
296 313 _l
360 299 405 279 432 255 _c
458 230 472 195 472 151 _c
472 100 452 60 412 31 _c
372 1 316 -13 246 -13 _c
216 -13 186 -10 154 -5 _c
}_e{122 0 89 8 54 20 _c
54 113 _l
87 95 120 82 152 74 _c
184 65 216 61 248 61 _c
290 61 323 68 346 82 _c
368 96 380 117 380 144 _c
380 168 371 187 355 200 _c
339 213 303 226 247 238 _c
216 245 _l
160 257 119 275 95 299 _c
70 323 58 356 58 399 _c
58 450 76 490 112 518 _c
148 546 200 560 268 560 _c
301 560 332 557 362 552 _c
391 547 418 540 443 531 _c
}_e{_cl}_e}_d
/t{392 0 27 0 368 702 _sc
183 702 _m
183 547 _l
368 547 _l
368 477 _l
183 477 _l
183 180 _l
183 135 189 106 201 94 _c
213 81 238 75 276 75 _c
368 75 _l
368 0 _l
276 0 _l
206 0 158 13 132 39 _c
106 65 93 112 93 180 _c
93 477 _l
27 477 _l
27 547 _l
93 547 _l
93 702 _l
183 702 _l
_cl}_d
/v{592 0 30 0 562 547 _sc
30 547 _m
125 547 _l
296 88 _l
467 547 _l
562 547 _l
357 0 _l
235 0 _l
30 547 _l
_cl}_d
/x{592 0 29 0 559 547 _sc
549 547 _m
351 281 _l
559 0 _l
453 0 _l
294 215 _l
135 0 _l
29 0 _l
241 286 _l
47 547 _l
153 547 _l
298 352 _l
443 547 _l
549 547 _l
_cl}_d
/y{592 0 30 -207 562 547 _sc
322 -50 _m
296 -114 271 -157 247 -177 _c
223 -197 191 -207 151 -207 _c
79 -207 _l
79 -132 _l
132 -132 _l
156 -132 175 -126 189 -114 _c
203 -102 218 -75 235 -31 _c
251 9 _l
30 547 _l
125 547 _l
296 119 _l
467 547 _l
562 547 _l
322 -50 _l
_cl}_d
/bar{337 0 127 -235 210 764 _sc
210 764 _m
210 -235 _l
127 -235 _l
127 764 _l
210 764 _l
_cl}_d
/minus{838 0 106 272 732 355 _sc
106 355 _m
732 355 _l
732 272 _l
106 272 _l
106 355 _l
_cl}_d
end readonly def

/BuildGlyph
 {exch begin
 CharStrings exch
 2 copy known not{pop /.notdef}if
 true 3 1 roll get exec
 end}_d

/BuildChar {
 1 index /Encoding get exch get
 1 index /BuildGlyph get exec
}_d

FontName currentdict end definefont pop
%!PS-Adobe-3.0 Resource-Font
%%Title: DejaVu Sans Oblique
%%Copyright: Copyright (c) 2003 by Bitstream, Inc. All Rights Reserved. Copyright (c) 2006 by Tavmjong Bah. All Rights Reserved. DejaVu changes are in public domain 
%%Creator: Converted from TrueType to type 3 by PPR
25 dict begin
/_d{bind def}bind def
/_m{moveto}_d
/_l{lineto}_d
/_cl{closepath eofill}_d
/_c{curveto}_d
/_sc{7 -1 roll{setcachedevice}{pop pop pop pop pop pop}ifelse}_d
/_e{exec}_d
/FontName /DejaVuSans-Oblique def
/PaintType 0 def
/FontMatrix[.001 0 0 .001 0 0]def
/FontBBox[-1016 -350 1659 1068]def
/FontType 3 def
/Encoding [ /x /y /sigma ] def
/FontInfo 10 dict dup begin
/FamilyName (DejaVu Sans) def
/FullName (DejaVu Sans Oblique) def
/Notice (Copyright (c) 2003 by Bitstream, Inc. All Rights Reserved. Copyright (c) 2006 by Tavmjong Bah. All Rights Reserved. DejaVu changes are in public domain ) def
/Weight (Oblique) def
/Version (Version 2.35) def
/ItalicAngle -11.0 def
/isFixedPitch false def
/UnderlinePosition -130 def
/UnderlineThickness 90 def
end readonly def
/CharStrings 3 dict dup begin
/x{592 0 -25 0 600 547 _sc
600 547 _m
349 279 _l
503 0 _l
400 0 _l
284 217 _l
83 0 _l
-25 0 _l
243 288 _l
100 547 _l
203 547 _l
308 349 _l
491 547 _l
600 547 _l
_cl}_d
/y{592 0 -24 -207 603 547 _sc
248 -50 _m
206 -120 172 -163 146 -181 _c
120 -198 86 -207 46 -207 _c
-24 -207 _l
-9 -132 _l
42 -132 _l
67 -132 88 -125 106 -111 _c
123 -97 143 -71 165 -31 _c
193 20 _l
72 547 _l
167 547 _l
258 128 _l
509 547 _l
603 547 _l
248 -50 _l
_cl}_d
/sigma{{634 0 57 -13 659 547 _sc
347 476 _m
297 476 255 458 222 422 _c
186 384 163 335 151 273 _c
138 207 142 156 163 118 _c
183 80 218 62 267 62 _c
314 62 355 81 391 119 _c
426 156 450 207 463 273 _c
474 332 470 382 450 422 _c
431 458 397 476 347 476 _c
361 547 _m
659 547 _l
642 457 _l
541 457 _l
566 406 572 345 559 273 _c
541 183 505 113 451 63 _c
396 12 329 -13 251 -13 _c
}_e{173 -13 116 12 82 63 _c
47 113 39 183 57 273 _c
74 363 110 433 164 484 _c
209 526 275 547 361 547 _c
_cl}_e}_d
end readonly def

/BuildGlyph
 {exch begin
 CharStrings exch
 2 copy known not{pop /.notdef}if
 true 3 1 roll get exec
 end}_d

/BuildChar {
 1 index /Encoding get exch get
 1 index /BuildGlyph get exec
}_d

FontName currentdict end definefont pop
end
%%EndProlog
mpldict begin
-54 216 translate
720 360 0 0 clipbox
gsave
0 0 m
720 0 l
720 360 l
0 360 l
cl
grestore
gsave
53.66 55.568 m
334.98 55.568 l
334.98 344.52 l
53.66 344.52 l
cl
1.000 setgray
fill
grestore
0.800 setlinewidth
1 setlinejoin
0 setlinecap
[] 0 setdash
0.000 setgray
gsave
/o {
gsave
newpath
translate
0.8 setlinewidth
1 setlinejoin
0 setlinecap
0 0 m
0 -3.5 l

gsave
0.000 setgray
fill
grestore
stroke
grestore
} bind def
53.66 55.568 o
grestore
/DejaVuSans findfont
12.000 scalefont
setfont
gsave
44.113125 39.443000 translate
0.000000 rotate
0.000000 0.000000 m /zero glyphshow
7.634766 0.000000 m /period glyphshow
11.449219 0.000000 m /zero glyphshow
grestore
gsave
/o {
gsave
newpath
translate
0.8 setlinewidth
1 setlinejoin
0 setlinecap
0 0 m
0 -3.5 l

gsave
0.000 setgray
fill
grestore
stroke
grestore
} bind def
123.99 55.568 o
grestore
gsave
114.443125 39.443000 translate
0.000000 rotate
0.000000 0.000000 m /zero glyphshow
7.634766 0.000000 m /period glyphshow
11.449219 0.000000 m /five glyphshow
grestore
gsave
/o {
gsave
newpath
translate
0.8 setlinewidth
1 setlinejoin
0 setlinecap
0 0 m
0 -3.5 l

gsave
0.000 setgray
fill
grestore
stroke
grestore
} bind def
194.32 55.568 o
grestore
gsave
184.773125 39.443000 translate
0.000000 rotate
0.000000 0.000000 m /one glyphshow
7.634766 0.000000 m /period glyphshow
11.449219 0.000000 m /zero glyphshow
grestore
gsave
/o {
gsave
newpath
translate
0.8 setlinewidth
1 setlinejoin
0 setlinecap
0 0 m
0 -3.5 l

gsave
0.000 setgray
fill
grestore
stroke
grestore
} bind def
264.65 55.568 o
grestore
gsave
255.103125 39.443000 translate
0.000000 rotate
0.000000 0.000000 m /one glyphshow
7.634766 0.000000 m /period glyphshow
11.449219 0.000000 m /five glyphshow
grestore
gsave
/o {
gsave
newpath
translate
0.8 setlinewidth
1 setlinejoin
0 setlinecap
0 0 m
0 -3.5 l

gsave
0.000 setgray
fill
grestore
stroke
grestore
} bind def
334.98 55.568 o
grestore
gsave
325.433125 39.443000 translate
0.000000 rotate
0.000000 0.000000 m /two glyphshow
7.634766 0.000000 m /period glyphshow
11.449219 0.000000 m /zero glyphshow
grestore
gsave
108.820000 19.943000 translate
0.000000 rotate
/DejaVuSans findfont
14.0 scalefont
setfont
0.000000 0.367188 moveto
/D glyphshow

10.780273 0.367188 moveto
/i glyphshow

14.669922 0.367188 moveto
/s glyphshow

21.963867 0.367188 moveto
/p glyphshow

30.850586 0.367188 moveto
/l glyphshow

34.740234 0.367188 moveto
/a glyphshow

43.319336 0.367188 moveto
/c glyphshow

51.016602 0.367188 moveto
/e glyphshow

59.629883 0.367188 moveto
/m glyphshow

73.267578 0.367188 moveto
/e glyphshow

81.880859 0.367188 moveto
/n glyphshow

90.753906 0.367188 moveto
/t glyphshow

96.243164 0.367188 moveto
/space glyphshow

100.693359 0.367188 moveto
/parenleft glyphshow

106.155273 0.367188 moveto
/x glyphshow

114.440430 0.367188 moveto
/one glyphshow

123.347656 0.367188 moveto
/zero glyphshow

/DejaVuSans findfont
9.799999999999999 scalefont
setfont
132.388867 5.726562 moveto
/minus glyphshow

140.600195 5.726562 moveto
/two glyphshow

/DejaVuSans findfont
14.0 scalefont
setfont
147.218066 0.367188 moveto
/space glyphshow

151.668262 0.367188 moveto
/m glyphshow

165.305957 0.367188 moveto
/parenright glyphshow


grestore
gsave
/o {
gsave
newpath
translate
0.8 setlinewidth
1 setlinejoin
0 setlinecap
0 0 m
-3.5 0 l

gsave
0.000 setgray
fill
grestore
stroke
grestore
} bind def
53.66 68.7022 o
grestore
gsave
39.019375 64.139682 translate
0.000000 rotate
0.000000 0.000000 m /zero glyphshow
grestore
gsave
/o {
gsave
newpath
translate
0.8 setlinewidth
1 setlinejoin
0 setlinecap
0 0 m
-3.5 0 l

gsave
0.000 setgray
fill
grestore
stroke
grestore
} bind def
53.66 109.723 o
grestore
gsave
39.019375 105.160894 translate
0.000000 rotate
0.000000 0.000000 m /two glyphshow
grestore
gsave
/o {
gsave
newpath
translate
0.8 setlinewidth
1 setlinejoin
0 setlinecap
0 0 m
-3.5 0 l

gsave
0.000 setgray
fill
grestore
stroke
grestore
} bind def
53.66 150.745 o
grestore
gsave
39.019375 146.182105 translate
0.000000 rotate
0.000000 0.000000 m /four glyphshow
grestore
gsave
/o {
gsave
newpath
translate
0.8 setlinewidth
1 setlinejoin
0 setlinecap
0 0 m
-3.5 0 l

gsave
0.000 setgray
fill
grestore
stroke
grestore
} bind def
53.66 191.766 o
grestore
gsave
39.019375 187.203317 translate
0.000000 rotate
0.000000 0.000000 m /six glyphshow
grestore
gsave
/o {
gsave
newpath
translate
0.8 setlinewidth
1 setlinejoin
0 setlinecap
0 0 m
-3.5 0 l

gsave
0.000 setgray
fill
grestore
stroke
grestore
} bind def
53.66 232.787 o
grestore
gsave
39.019375 228.224529 translate
0.000000 rotate
0.000000 0.000000 m /eight glyphshow
grestore
gsave
/o {
gsave
newpath
translate
0.8 setlinewidth
1 setlinejoin
0 setlinecap
0 0 m
-3.5 0 l

gsave
0.000 setgray
fill
grestore
stroke
grestore
} bind def
53.66 273.808 o
grestore
gsave
31.378750 269.245740 translate
0.000000 rotate
0.000000 0.000000 m /one glyphshow
7.634766 0.000000 m /zero glyphshow
grestore
gsave
/o {
gsave
newpath
translate
0.8 setlinewidth
1 setlinejoin
0 setlinecap
0 0 m
-3.5 0 l

gsave
0.000 setgray
fill
grestore
stroke
grestore
} bind def
53.66 314.829 o
grestore
gsave
31.378750 310.266952 translate
0.000000 rotate
0.000000 0.000000 m /one glyphshow
7.634766 0.000000 m /two glyphshow
grestore
/DejaVuSans findfont
16.000 scalefont
setfont
gsave
24.050625 149.833063 translate
90.000000 rotate
0.000000 0.000000 m /S glyphshow
10.156250 0.000000 m /t glyphshow
16.429688 0.000000 m /r glyphshow
23.007812 0.000000 m /e glyphshow
32.851562 0.000000 m /s glyphshow
41.187500 0.000000 m /s glyphshow
49.523438 0.000000 m /space glyphshow
54.609375 0.000000 m /parenleft glyphshow
60.851562 0.000000 m /M glyphshow
74.656250 0.000000 m /P glyphshow
84.304688 0.000000 m /a glyphshow
94.109375 0.000000 m /parenright glyphshow
grestore
3.000 setlinewidth
2 setlinecap
gsave
281.3 289 53.66 55.57 clipbox
53.66 68.702182 m
134.722358 152.391595 l
177.693988 196.682622 l
274.046088 279.103938 l
334.98 331.379884 l
334.98 331.379884 l
stroke
grestore
2.000 setlinewidth
0 setlinecap
gsave
281.3 289 53.66 55.57 clipbox
/o {
gsave
newpath
translate
2.0 setlinewidth
1 setlinejoin
0 setlinecap
0 -4 m
1.060812 -4 2.078319 -3.578535 2.828427 -2.828427 c
3.578535 -2.078319 4 -1.060812 4 0 c
4 1.060812 3.578535 2.078319 2.828427 2.828427 c
2.078319 3.578535 1.060812 4 0 4 c
-1.060812 4 -2.078319 3.578535 -2.828427 2.828427 c
-3.578535 2.078319 -4 1.060812 -4 0 c
-4 -1.060812 -3.578535 -2.078319 -2.828427 -2.828427 c
-2.078319 -3.578535 -1.060812 -4 0 -4 c
cl

stroke
grestore
} bind def
53.66 68.7022 o
64.9128 80.3005 o
76.1656 91.905 o
87.4184 103.516 o
98.6712 115.132 o
109.924 126.755 o
121.177 138.385 o
132.43 150.02 o
143.682 161.661 o
154.935 173.309 o
166.188 184.963 o
177.441 196.473 o
188.694 206.083 o
199.946 215.698 o
211.199 225.316 o
222.452 234.939 o
233.705 244.566 o
244.958 254.196 o
256.21 263.831 o
267.463 273.469 o
278.716 283.112 o
289.969 292.759 o
301.222 302.409 o
312.474 312.064 o
323.727 321.723 o
334.98 331.386 o
grestore
3.000 setlinewidth
[11.1 4.8] 0 setdash
gsave
281.3 289 53.66 55.57 clipbox
53.66 68.702182 m
128.06914 119.470432 l
144.062182 130.277727 l
232.045012 168.739817 l
319.521466 207.222878 l
334.98 214.048825 l
334.98 214.048825 l
stroke
grestore
4.000 setlinewidth
2 setlinecap
[] 0 setdash
0.502 setgray
gsave
281.3 289 53.66 55.57 clipbox
53.66 68.702182 m
177.01882 123.984894 l
285.158228 189.128719 l
334.98 219.229567 l
334.98 219.229567 l
stroke
grestore
2.000 setlinewidth
0 setlinecap
gsave
281.3 289 53.66 55.57 clipbox
/o {
gsave
newpath
translate
2.0 setlinewidth
1 setlinejoin
0 setlinecap
0 -4 m
1.060812 -4 2.078319 -3.578535 2.828427 -2.828427 c
3.578535 -2.078319 4 -1.060812 4 0 c
4 1.060812 3.578535 2.078319 2.828427 2.828427 c
2.078319 3.578535 1.060812 4 0 4 c
-1.060812 4 -2.078319 3.578535 -2.828427 2.828427 c
-3.578535 2.078319 -4 1.060812 -4 0 c
-4 -1.060812 -3.578535 -2.078319 -2.828427 -2.828427 c
-2.078319 -3.578535 -1.060812 -4 0 -4 c
cl

stroke
grestore
} bind def
53.66 68.7022 o
64.9128 73.7345 o
76.1656 78.7678 o
87.4184 83.8019 o
98.6712 88.8369 o
109.924 93.8728 o
121.177 98.9096 o
132.43 103.947 o
143.682 108.986 o
154.935 114.025 o
166.188 119.065 o
177.441 124.223 o
188.694 130.99 o
199.946 137.76 o
211.199 144.532 o
222.452 151.307 o
233.705 158.085 o
244.958 164.866 o
256.21 171.649 o
267.463 178.436 o
278.716 185.225 o
289.969 192.017 o
301.222 198.812 o
312.474 205.61 o
323.727 212.41 o
334.98 219.214 o
grestore
4.000 setlinewidth
[14.8 6.4] 0 setdash
gsave
281.3 289 53.66 55.57 clipbox
53.66 68.702182 m
143.89339 77.584123 l
246.532992 109.192394 l
334.98 136.618153 l
334.98 136.618153 l
stroke
grestore
0.800 setlinewidth
0 setlinejoin
2 setlinecap
[] 0 setdash
0.000 setgray
gsave
53.66 55.568 m
53.66 344.52 l
stroke
grestore
gsave
334.98 55.568 m
334.98 344.52 l
stroke
grestore
gsave
53.66 55.568 m
334.98 55.568 l
stroke
grestore
gsave
53.66 344.52 m
334.98 344.52 l
stroke
grestore
3.000 setlinewidth
1 setlinejoin
[] 0 setdash
gsave
64.46 327.92 m
88.46 327.92 l
stroke
grestore
gsave
98.060000 323.720000 translate
0.000000 rotate
/DejaVuSans findfont
12.0 scalefont
setfont
0.000000 0.828125 moveto
/bar glyphshow

/DejaVuSans-Oblique findfont
12.0 scalefont
setfont
4.042969 0.828125 moveto
/sigma glyphshow

/DejaVuSans-Oblique findfont
8.399999999999999 scalefont
setfont
11.648438 -1.140625 moveto
/x glyphshow

16.619531 -1.140625 moveto
/x glyphshow

/DejaVuSans findfont
12.0 scalefont
setfont
21.918750 0.828125 moveto
/bar glyphshow

25.961719 0.828125 moveto
/space glyphshow

29.776172 0.828125 moveto
/S glyphshow

37.393359 0.828125 moveto
/e glyphshow

44.776172 0.828125 moveto
/m glyphshow

56.465625 0.828125 moveto
/i glyphshow

59.799609 0.828125 moveto
/hyphen glyphshow

64.129688 0.828125 moveto
/a glyphshow

71.483203 0.828125 moveto
/n glyphshow

79.088672 0.828125 moveto
/a glyphshow

86.442188 0.828125 moveto
/l glyphshow

89.776172 0.828125 moveto
/y glyphshow

96.877734 0.828125 moveto
/t glyphshow

101.582813 0.828125 moveto
/i glyphshow

104.916797 0.828125 moveto
/c glyphshow


grestore
2.000 setlinewidth
0 setlinecap
gsave
/o {
gsave
newpath
translate
2.0 setlinewidth
1 setlinejoin
0 setlinecap
0 -4 m
1.060812 -4 2.078319 -3.578535 2.828427 -2.828427 c
3.578535 -2.078319 4 -1.060812 4 0 c
4 1.060812 3.578535 2.078319 2.828427 2.828427 c
2.078319 3.578535 1.060812 4 0 4 c
-1.060812 4 -2.078319 3.578535 -2.828427 2.828427 c
-3.578535 2.078319 -4 1.060812 -4 0 c
-4 -1.060812 -3.578535 -2.078319 -2.828427 -2.828427 c
-2.078319 -3.578535 -1.060812 -4 0 -4 c
cl

stroke
grestore
} bind def
76.46 309.795 o
grestore
/DejaVuSans findfont
12.000 scalefont
setfont
gsave
98.060000 305.595000 translate
0.000000 rotate
0.000000 0.000000 m /space glyphshow
3.814453 0.000000 m /space glyphshow
7.628906 0.000000 m /space glyphshow
11.443359 0.000000 m /space glyphshow
15.257812 0.000000 m /space glyphshow
19.072266 0.000000 m /space glyphshow
22.886719 0.000000 m /space glyphshow
26.701172 0.000000 m /D glyphshow
35.941406 0.000000 m /E glyphshow
43.523438 0.000000 m /S glyphshow
51.140625 0.000000 m /three glyphshow
58.775391 0.000000 m /D glyphshow
grestore
3.000 setlinewidth
[11.1 4.8] 0 setdash
gsave
64.46 292.17 m
88.46 292.17 l
stroke
grestore
gsave
98.060000 287.970000 translate
0.000000 rotate
0.000000 0.000000 m /space glyphshow
3.814453 0.000000 m /space glyphshow
7.628906 0.000000 m /I glyphshow
11.167969 0.000000 m /s glyphshow
17.419922 0.000000 m /o glyphshow
24.761719 0.000000 m /t glyphshow
29.466797 0.000000 m /h glyphshow
37.072266 0.000000 m /e glyphshow
44.455078 0.000000 m /r glyphshow
49.388672 0.000000 m /m glyphshow
61.078125 0.000000 m /a glyphshow
68.431641 0.000000 m /l glyphshow
grestore
4.000 setlinewidth
2 setlinecap
[] 0 setdash
0.502 setgray
gsave
64.46 273.67 m
88.46 273.67 l
stroke
grestore
0.000 setgray
gsave
98.060000 269.470000 translate
0.000000 rotate
/DejaVuSans findfont
12.0 scalefont
setfont
0.000000 0.828125 moveto
/bar glyphshow

/DejaVuSans-Oblique findfont
12.0 scalefont
setfont
4.042969 0.828125 moveto
/sigma glyphshow

/DejaVuSans-Oblique findfont
8.399999999999999 scalefont
setfont
11.648438 -1.140625 moveto
/y glyphshow

16.619531 -1.140625 moveto
/y glyphshow

/DejaVuSans findfont
12.0 scalefont
setfont
21.918750 0.828125 moveto
/bar glyphshow

25.961719 0.828125 moveto
/space glyphshow

29.776172 0.828125 moveto
/S glyphshow

37.393359 0.828125 moveto
/e glyphshow

44.776172 0.828125 moveto
/m glyphshow

56.465625 0.828125 moveto
/i glyphshow

59.799609 0.828125 moveto
/hyphen glyphshow

64.129688 0.828125 moveto
/a glyphshow

71.483203 0.828125 moveto
/n glyphshow

79.088672 0.828125 moveto
/a glyphshow

86.442188 0.828125 moveto
/l glyphshow

89.776172 0.828125 moveto
/y glyphshow

96.877734 0.828125 moveto
/t glyphshow

101.582813 0.828125 moveto
/i glyphshow

104.916797 0.828125 moveto
/c glyphshow


grestore
2.000 setlinewidth
0 setlinecap
0.502 setgray
gsave
/o {
gsave
newpath
translate
2.0 setlinewidth
1 setlinejoin
0 setlinecap
0 -4 m
1.060812 -4 2.078319 -3.578535 2.828427 -2.828427 c
3.578535 -2.078319 4 -1.060812 4 0 c
4 1.060812 3.578535 2.078319 2.828427 2.828427 c
2.078319 3.578535 1.060812 4 0 4 c
-1.060812 4 -2.078319 3.578535 -2.828427 2.828427 c
-3.578535 2.078319 -4 1.060812 -4 0 c
-4 -1.060812 -3.578535 -2.078319 -2.828427 -2.828427 c
-2.078319 -3.578535 -1.060812 -4 0 -4 c
cl

stroke
grestore
} bind def
76.46 254.545 o
grestore
0.000 setgray
gsave
98.060000 250.345000 translate
0.000000 rotate
0.000000 0.000000 m /space glyphshow
3.814453 0.000000 m /space glyphshow
7.628906 0.000000 m /space glyphshow
11.443359 0.000000 m /space glyphshow
15.257812 0.000000 m /space glyphshow
19.072266 0.000000 m /space glyphshow
22.886719 0.000000 m /space glyphshow
26.701172 0.000000 m /D glyphshow
35.941406 0.000000 m /E glyphshow
43.523438 0.000000 m /S glyphshow
51.140625 0.000000 m /three glyphshow
58.775391 0.000000 m /D glyphshow
grestore
4.000 setlinewidth
[14.8 6.4] 0 setdash
0.502 setgray
gsave
64.46 236.92 m
88.46 236.92 l
stroke
grestore
0.000 setgray
gsave
98.060000 232.720000 translate
0.000000 rotate
0.000000 0.000000 m /space glyphshow
3.814453 0.000000 m /space glyphshow
7.628906 0.000000 m /space glyphshow
11.443359 0.000000 m /space glyphshow
15.257812 0.000000 m /space glyphshow
19.072266 0.000000 m /space glyphshow
22.886719 0.000000 m /space glyphshow
26.701172 0.000000 m /I glyphshow
30.240234 0.000000 m /s glyphshow
36.492188 0.000000 m /o glyphshow
43.833984 0.000000 m /t glyphshow
48.539062 0.000000 m /h glyphshow
56.144531 0.000000 m /e glyphshow
63.527344 0.000000 m /r glyphshow
68.460938 0.000000 m /m glyphshow
80.150391 0.000000 m /a glyphshow
87.503906 0.000000 m /l glyphshow
grestore
gsave
416.225 55.568 m
697.545 55.568 l
697.545 344.52 l
416.225 344.52 l
cl
1.000 setgray
fill
grestore
0.800 setlinewidth
[] 0 setdash
gsave
/o {
gsave
newpath
translate
0.8 setlinewidth
1 setlinejoin
0 setlinecap
0 0 m
0 -3.5 l

gsave
0.000 setgray
fill
grestore
stroke
grestore
} bind def
416.225 55.568 o
grestore
gsave
406.678125 39.443000 translate
0.000000 rotate
0.000000 0.000000 m /zero glyphshow
7.634766 0.000000 m /period glyphshow
11.449219 0.000000 m /zero glyphshow
grestore
gsave
/o {
gsave
newpath
translate
0.8 setlinewidth
1 setlinejoin
0 setlinecap
0 0 m
0 -3.5 l

gsave
0.000 setgray
fill
grestore
stroke
grestore
} bind def
486.555 55.568 o
grestore
gsave
477.008125 39.443000 translate
0.000000 rotate
0.000000 0.000000 m /zero glyphshow
7.634766 0.000000 m /period glyphshow
11.449219 0.000000 m /five glyphshow
grestore
gsave
/o {
gsave
newpath
translate
0.8 setlinewidth
1 setlinejoin
0 setlinecap
0 0 m
0 -3.5 l

gsave
0.000 setgray
fill
grestore
stroke
grestore
} bind def
556.885 55.568 o
grestore
gsave
547.338125 39.443000 translate
0.000000 rotate
0.000000 0.000000 m /one glyphshow
7.634766 0.000000 m /period glyphshow
11.449219 0.000000 m /zero glyphshow
grestore
gsave
/o {
gsave
newpath
translate
0.8 setlinewidth
1 setlinejoin
0 setlinecap
0 0 m
0 -3.5 l

gsave
0.000 setgray
fill
grestore
stroke
grestore
} bind def
627.215 55.568 o
grestore
gsave
617.668125 39.443000 translate
0.000000 rotate
0.000000 0.000000 m /one glyphshow
7.634766 0.000000 m /period glyphshow
11.449219 0.000000 m /five glyphshow
grestore
gsave
/o {
gsave
newpath
translate
0.8 setlinewidth
1 setlinejoin
0 setlinecap
0 0 m
0 -3.5 l

gsave
0.000 setgray
fill
grestore
stroke
grestore
} bind def
697.545 55.568 o
grestore
gsave
687.998125 39.443000 translate
0.000000 rotate
0.000000 0.000000 m /two glyphshow
7.634766 0.000000 m /period glyphshow
11.449219 0.000000 m /zero glyphshow
grestore
gsave
471.385000 19.943000 translate
0.000000 rotate
/DejaVuSans findfont
14.0 scalefont
setfont
0.000000 0.367188 moveto
/D glyphshow

10.780273 0.367188 moveto
/i glyphshow

14.669922 0.367188 moveto
/s glyphshow

21.963867 0.367188 moveto
/p glyphshow

30.850586 0.367188 moveto
/l glyphshow

34.740234 0.367188 moveto
/a glyphshow

43.319336 0.367188 moveto
/c glyphshow

51.016602 0.367188 moveto
/e glyphshow

59.629883 0.367188 moveto
/m glyphshow

73.267578 0.367188 moveto
/e glyphshow

81.880859 0.367188 moveto
/n glyphshow

90.753906 0.367188 moveto
/t glyphshow

96.243164 0.367188 moveto
/space glyphshow

100.693359 0.367188 moveto
/parenleft glyphshow

106.155273 0.367188 moveto
/x glyphshow

114.440430 0.367188 moveto
/one glyphshow

123.347656 0.367188 moveto
/zero glyphshow

/DejaVuSans findfont
9.799999999999999 scalefont
setfont
132.388867 5.726562 moveto
/minus glyphshow

140.600195 5.726562 moveto
/two glyphshow

/DejaVuSans findfont
14.0 scalefont
setfont
147.218066 0.367188 moveto
/space glyphshow

151.668262 0.367188 moveto
/m glyphshow

165.305957 0.367188 moveto
/parenright glyphshow


grestore
gsave
/o {
gsave
newpath
translate
0.8 setlinewidth
1 setlinejoin
0 setlinecap
0 0 m
-3.5 0 l

gsave
0.000 setgray
fill
grestore
stroke
grestore
} bind def
416.225 67.9119 o
grestore
gsave
374.850000 63.349434 translate
0.000000 rotate
0.000000 0.000000 m /zero glyphshow
7.634766 0.000000 m /period glyphshow
11.449219 0.000000 m /zero glyphshow
19.083984 0.000000 m /zero glyphshow
26.718750 0.000000 m /zero glyphshow
grestore
gsave
/o {
gsave
newpath
translate
0.8 setlinewidth
1 setlinejoin
0 setlinecap
0 0 m
-3.5 0 l

gsave
0.000 setgray
fill
grestore
stroke
grestore
} bind def
416.225 115.703 o
grestore
gsave
374.850000 111.140177 translate
0.000000 rotate
0.000000 0.000000 m /zero glyphshow
7.634766 0.000000 m /period glyphshow
11.449219 0.000000 m /zero glyphshow
19.083984 0.000000 m /zero glyphshow
26.718750 0.000000 m /five glyphshow
grestore
gsave
/o {
gsave
newpath
translate
0.8 setlinewidth
1 setlinejoin
0 setlinecap
0 0 m
-3.5 0 l

gsave
0.000 setgray
fill
grestore
stroke
grestore
} bind def
416.225 163.493 o
grestore
gsave
374.850000 158.930919 translate
0.000000 rotate
0.000000 0.000000 m /zero glyphshow
7.634766 0.000000 m /period glyphshow
11.449219 0.000000 m /zero glyphshow
19.083984 0.000000 m /one glyphshow
26.718750 0.000000 m /zero glyphshow
grestore
gsave
/o {
gsave
newpath
translate
0.8 setlinewidth
1 setlinejoin
0 setlinecap
0 0 m
-3.5 0 l

gsave
0.000 setgray
fill
grestore
stroke
grestore
} bind def
416.225 211.284 o
grestore
gsave
374.850000 206.721662 translate
0.000000 rotate
0.000000 0.000000 m /zero glyphshow
7.634766 0.000000 m /period glyphshow
11.449219 0.000000 m /zero glyphshow
19.083984 0.000000 m /one glyphshow
26.718750 0.000000 m /five glyphshow
grestore
gsave
/o {
gsave
newpath
translate
0.8 setlinewidth
1 setlinejoin
0 setlinecap
0 0 m
-3.5 0 l

gsave
0.000 setgray
fill
grestore
stroke
grestore
} bind def
416.225 259.075 o
grestore
gsave
374.850000 254.512404 translate
0.000000 rotate
0.000000 0.000000 m /zero glyphshow
7.634766 0.000000 m /period glyphshow
11.449219 0.000000 m /zero glyphshow
19.083984 0.000000 m /two glyphshow
26.718750 0.000000 m /zero glyphshow
grestore
gsave
/o {
gsave
newpath
translate
0.8 setlinewidth
1 setlinejoin
0 setlinecap
0 0 m
-3.5 0 l

gsave
0.000 setgray
fill
grestore
stroke
grestore
} bind def
416.225 306.866 o
grestore
gsave
374.850000 302.303147 translate
0.000000 rotate
0.000000 0.000000 m /zero glyphshow
7.634766 0.000000 m /period glyphshow
11.449219 0.000000 m /zero glyphshow
19.083984 0.000000 m /two glyphshow
26.718750 0.000000 m /five glyphshow
grestore
/DejaVuSans findfont
14.000 scalefont
setfont
gsave
367.943750 137.606500 translate
90.000000 rotate
0.000000 0.000000 m /R glyphshow
9.727539 0.000000 m /e glyphshow
18.340820 0.000000 m /l glyphshow
22.230469 0.000000 m /a glyphshow
30.809570 0.000000 m /t glyphshow
36.298828 0.000000 m /i glyphshow
40.188477 0.000000 m /v glyphshow
48.473633 0.000000 m /e glyphshow
57.086914 0.000000 m /space glyphshow
61.537109 0.000000 m /E glyphshow
70.382812 0.000000 m /r glyphshow
76.138672 0.000000 m /r glyphshow
81.894531 0.000000 m /o glyphshow
90.459961 0.000000 m /r glyphshow
96.215820 0.000000 m /space glyphshow
100.666016 0.000000 m /parenleft glyphshow
106.127930 0.000000 m /percent glyphshow
119.430664 0.000000 m /parenright glyphshow
grestore
1.500 setlinewidth
2 setlinecap
gsave
281.3 289 416.2 55.57 clipbox
421.8514 70.98848 m
427.4778 71.032767 l
433.1042 71.031796 l
438.7306 70.985644 l
444.357 71.232309 l
449.9834 70.814427 l
455.6098 71.011247 l
461.2362 71.195273 l
466.8626 71.018107 l
472.489 70.946297 l
478.1154 70.96963 l
483.7418 71.081308 l
489.3682 71.016975 l
494.9946 71.070107 l
500.621 71.00585 l
506.2474 71.069966 l
511.8738 71.053374 l
517.5002 71.16838 l
523.1266 71.049944 l
528.753 71.080711 l
534.3794 71.088562 l
540.0058 113.424369 l
545.6322 111.717935 l
551.2586 110.074137 l
556.885 108.619148 l
562.5114 107.195882 l
568.1378 105.925438 l
573.7642 104.663668 l
579.3906 103.526498 l
585.017 102.498492 l
590.6434 101.451325 l
596.2698 100.493669 l
601.8962 99.614102 l
607.5226 98.696689 l
613.149 97.843255 l
618.7754 97.145567 l
624.4018 96.392384 l
630.0282 95.679575 l
635.6546 94.907106 l
641.281 94.349678 l
646.9074 93.900121 l
652.5338 92.672986 l
658.1602 92.427132 l
663.7866 92.259566 l
669.413 91.340358 l
675.0394 91.322179 l
680.6658 90.569457 l
686.2922 89.895971 l
691.9186 89.294218 l
697.545 89.503563 l
stroke
grestore
0 setlinecap
[5.55 2.4] 0 setdash
gsave
281.3 289 416.2 55.57 clipbox
421.8514 68.702182 m
427.4778 68.995123 l
433.1042 69.050542 l
438.7306 68.868488 l
444.357 68.91643 l
449.9834 68.960659 l
455.6098 68.901044 l
461.2362 68.979643 l
466.8626 68.811647 l
472.489 69.022976 l
478.1154 69.020634 l
483.7418 68.863667 l
489.3682 69.192003 l
494.9946 68.793952 l
500.621 68.857626 l
506.2474 68.813969 l
511.8738 69.143927 l
517.5002 68.923856 l
523.1266 69.063765 l
528.753 69.123753 l
534.3794 69.118485 l
540.0058 331.385818 l
545.6322 316.814859 l
551.2586 303.53249 l
556.885 291.646663 l
562.5114 280.960275 l
568.1378 271.312995 l
573.7642 262.31459 l
579.3906 254.383797 l
585.017 246.921515 l
590.6434 239.878882 l
596.2698 233.653016 l
601.8962 227.737865 l
607.5226 222.310208 l
613.149 217.128954 l
618.7754 212.365574 l
624.4018 207.985328 l
630.0282 203.779133 l
635.6546 199.909528 l
641.281 196.183666 l
646.9074 192.593994 l
652.5338 189.292749 l
658.1602 186.26115 l
663.7866 183.331712 l
669.413 180.500826 l
675.0394 177.76524 l
680.6658 175.261728 l
686.2922 172.841317 l
691.9186 170.502054 l
697.545 168.372407 l
stroke
grestore
0.800 setlinewidth
0 setlinejoin
2 setlinecap
[] 0 setdash
gsave
416.225 55.568 m
416.225 344.52 l
stroke
grestore
gsave
697.545 55.568 m
697.545 344.52 l
stroke
grestore
gsave
416.225 55.568 m
697.545 55.568 l
stroke
grestore
gsave
416.225 344.52 m
697.545 344.52 l
stroke
grestore
1.500 setlinewidth
1 setlinejoin
[] 0 setdash
gsave
627.145 327.92 m
651.145 327.92 l
stroke
grestore
gsave
660.745000 323.720000 translate
0.000000 rotate
/DejaVuSans findfont
12.0 scalefont
setfont
0.000000 0.828125 moveto
/bar glyphshow

/DejaVuSans-Oblique findfont
12.0 scalefont
setfont
4.042969 0.828125 moveto
/sigma glyphshow

/DejaVuSans-Oblique findfont
8.399999999999999 scalefont
setfont
11.648438 -1.140625 moveto
/x glyphshow

16.619531 -1.140625 moveto
/x glyphshow

/DejaVuSans findfont
12.0 scalefont
setfont
21.918750 0.828125 moveto
/bar glyphshow


grestore
0 setlinecap
[5.55 2.4] 0 setdash
gsave
627.145 308.92 m
651.145 308.92 l
stroke
grestore
gsave
660.745000 304.720000 translate
0.000000 rotate
/DejaVuSans findfont
12.0 scalefont
setfont
0.000000 0.828125 moveto
/bar glyphshow

/DejaVuSans-Oblique findfont
12.0 scalefont
setfont
4.042969 0.828125 moveto
/sigma glyphshow

/DejaVuSans-Oblique findfont
8.399999999999999 scalefont
setfont
11.648438 -1.140625 moveto
/y glyphshow

16.619531 -1.140625 moveto
/y glyphshow

/DejaVuSans findfont
12.0 scalefont
setfont
21.918750 0.828125 moveto
/bar glyphshow


grestore

end
showpage
