%!PS-Adobe-3.0 EPSF-3.0
%%Title: B1.eps
%%Creator: matplotlib version 2.0.2, http://matplotlib.org/
%%CreationDate: Mon Jan 22 22:42:06 2018
%%Orientation: portrait
%%BoundingBox: -54 108 666 684
%%EndComments
%%BeginProlog
/mpldict 9 dict def
mpldict begin
/m { moveto } bind def
/l { lineto } bind def
/r { rlineto } bind def
/c { curveto } bind def
/cl { closepath } bind def
/box {
m
1 index 0 r
0 exch r
neg 0 r
cl
} bind def
/clipbox {
box
clip
newpath
} bind def
%!PS-Adobe-3.0 Resource-Font
%%Title: DejaVu Sans
%%Copyright: Copyright (c) 2003 by Bitstream, Inc. All Rights Reserved. Copyright (c) 2006 by Tavmjong Bah. All Rights Reserved. DejaVu changes are in public domain 
%%Creator: Converted from TrueType to type 3 by PPR
25 dict begin
/_d{bind def}bind def
/_m{moveto}_d
/_l{lineto}_d
/_cl{closepath eofill}_d
/_c{curveto}_d
/_sc{7 -1 roll{setcachedevice}{pop pop pop pop pop pop}ifelse}_d
/_e{exec}_d
/FontName /DejaVuSans def
/PaintType 0 def
/FontMatrix[.001 0 0 .001 0 0]def
/FontBBox[-1021 -463 1793 1232]def
/FontType 3 def
/Encoding [ /space /percent /parenleft /parenright /hyphen /period /zero /one /two /three /four /five /six /seven /eight /nine /D /E /K /M /P /R /S /T /a /c /e /i /l /m /n /o /p /r /s /t /u /v /x /y /bar /minus ] def
/FontInfo 10 dict dup begin
/FamilyName (DejaVu Sans) def
/FullName (DejaVu Sans) def
/Notice (Copyright (c) 2003 by Bitstream, Inc. All Rights Reserved. Copyright (c) 2006 by Tavmjong Bah. All Rights Reserved. DejaVu changes are in public domain ) def
/Weight (Book) def
/Version (Version 2.35) def
/ItalicAngle 0.0 def
/isFixedPitch false def
/UnderlinePosition -130 def
/UnderlineThickness 90 def
end readonly def
/CharStrings 42 dict dup begin
/space{318 0 0 0 0 0 _sc
}_d
/percent{{950 0 55 -13 895 742 _sc
727 321 _m
699 321 676 309 660 285 _c
644 261 636 227 636 184 _c
636 142 644 108 660 84 _c
676 60 699 48 727 48 _c
755 48 777 60 793 84 _c
809 108 817 142 817 184 _c
817 226 809 260 793 284 _c
777 308 755 321 727 321 _c
727 383 _m
778 383 819 365 849 329 _c
879 293 895 244 895 184 _c
895 123 879 75 849 40 _c
819 4 778 -13 727 -13 _c
}_e{675 -13 633 4 603 40 _c
573 75 558 123 558 184 _c
558 245 573 293 603 329 _c
633 365 675 383 727 383 _c
223 680 _m
195 680 173 667 157 643 _c
141 619 133 586 133 544 _c
133 500 141 467 157 443 _c
173 419 195 407 223 407 _c
251 407 274 419 290 443 _c
306 467 314 500 314 544 _c
314 586 305 619 289 643 _c
273 667 251 680 223 680 _c
664 742 _m
742 742 _l
286 -13 _l
}_e{208 -13 _l
664 742 _l
223 742 _m
274 742 315 724 346 688 _c
376 652 392 604 392 544 _c
392 482 376 434 346 398 _c
316 362 275 345 223 345 _c
171 345 130 362 100 398 _c
70 434 55 482 55 544 _c
55 604 70 652 100 688 _c
130 724 171 742 223 742 _c
_cl}_e}_d
/parenleft{390 0 86 -131 310 759 _sc
310 759 _m
266 683 234 609 213 536 _c
191 463 181 389 181 314 _c
181 238 191 164 213 91 _c
234 17 266 -56 310 -131 _c
232 -131 _l
183 -54 146 20 122 94 _c
98 168 86 241 86 314 _c
86 386 98 459 122 533 _c
146 607 182 682 232 759 _c
310 759 _l
_cl}_d
/parenright{390 0 80 -131 304 759 _sc
80 759 _m
158 759 _l
206 682 243 607 267 533 _c
291 459 304 386 304 314 _c
304 241 291 168 267 94 _c
243 20 206 -54 158 -131 _c
80 -131 _l
123 -56 155 17 177 91 _c
198 164 209 238 209 314 _c
209 389 198 463 177 536 _c
155 609 123 683 80 759 _c
_cl}_d
/hyphen{361 0 49 234 312 314 _sc
49 314 _m
312 314 _l
312 234 _l
49 234 _l
49 314 _l
_cl}_d
/period{318 0 107 0 210 124 _sc
107 124 _m
210 124 _l
210 0 _l
107 0 _l
107 124 _l
_cl}_d
/zero{636 0 66 -13 570 742 _sc
318 664 _m
267 664 229 639 203 589 _c
177 539 165 464 165 364 _c
165 264 177 189 203 139 _c
229 89 267 64 318 64 _c
369 64 407 89 433 139 _c
458 189 471 264 471 364 _c
471 464 458 539 433 589 _c
407 639 369 664 318 664 _c
318 742 _m
399 742 461 709 505 645 _c
548 580 570 486 570 364 _c
570 241 548 147 505 83 _c
461 19 399 -13 318 -13 _c
236 -13 173 19 130 83 _c
87 147 66 241 66 364 _c
66 486 87 580 130 645 _c
173 709 236 742 318 742 _c
_cl}_d
/one{636 0 110 0 544 729 _sc
124 83 _m
285 83 _l
285 639 _l
110 604 _l
110 694 _l
284 729 _l
383 729 _l
383 83 _l
544 83 _l
544 0 _l
124 0 _l
124 83 _l
_cl}_d
/two{{636 0 73 0 536 742 _sc
192 83 _m
536 83 _l
536 0 _l
73 0 _l
73 83 _l
110 121 161 173 226 239 _c
290 304 331 346 348 365 _c
380 400 402 430 414 455 _c
426 479 433 504 433 528 _c
433 566 419 598 392 622 _c
365 646 330 659 286 659 _c
255 659 222 653 188 643 _c
154 632 117 616 78 594 _c
78 694 _l
118 710 155 722 189 730 _c
223 738 255 742 284 742 _c
}_e{359 742 419 723 464 685 _c
509 647 532 597 532 534 _c
532 504 526 475 515 449 _c
504 422 484 390 454 354 _c
446 344 420 317 376 272 _c
332 227 271 164 192 83 _c
_cl}_e}_d
/three{{636 0 76 -13 556 742 _sc
406 393 _m
453 383 490 362 516 330 _c
542 298 556 258 556 212 _c
556 140 531 84 482 45 _c
432 6 362 -13 271 -13 _c
240 -13 208 -10 176 -4 _c
144 1 110 10 76 22 _c
76 117 _l
103 101 133 89 166 81 _c
198 73 232 69 268 69 _c
330 69 377 81 409 105 _c
441 129 458 165 458 212 _c
458 254 443 288 413 312 _c
383 336 341 349 287 349 _c
}_e{202 349 _l
202 430 _l
291 430 _l
339 430 376 439 402 459 _c
428 478 441 506 441 543 _c
441 580 427 609 401 629 _c
374 649 336 659 287 659 _c
260 659 231 656 200 650 _c
169 644 135 635 98 623 _c
98 711 _l
135 721 170 729 203 734 _c
235 739 266 742 296 742 _c
370 742 429 725 473 691 _c
517 657 539 611 539 553 _c
539 513 527 479 504 451 _c
481 423 448 403 406 393 _c
_cl}_e}_d
/four{636 0 49 0 580 729 _sc
378 643 _m
129 254 _l
378 254 _l
378 643 _l
352 729 _m
476 729 _l
476 254 _l
580 254 _l
580 172 _l
476 172 _l
476 0 _l
378 0 _l
378 172 _l
49 172 _l
49 267 _l
352 729 _l
_cl}_d
/five{{636 0 77 -13 549 729 _sc
108 729 _m
495 729 _l
495 646 _l
198 646 _l
198 467 _l
212 472 227 476 241 478 _c
255 480 270 482 284 482 _c
365 482 429 459 477 415 _c
525 370 549 310 549 234 _c
549 155 524 94 475 51 _c
426 8 357 -13 269 -13 _c
238 -13 207 -10 175 -6 _c
143 -1 111 6 77 17 _c
77 116 _l
106 100 136 88 168 80 _c
199 72 232 69 267 69 _c
}_e{323 69 368 83 401 113 _c
433 143 450 183 450 234 _c
450 284 433 324 401 354 _c
368 384 323 399 267 399 _c
241 399 214 396 188 390 _c
162 384 135 375 108 363 _c
108 729 _l
_cl}_e}_d
/six{{636 0 70 -13 573 742 _sc
330 404 _m
286 404 251 388 225 358 _c
199 328 186 286 186 234 _c
186 181 199 139 225 109 _c
251 79 286 64 330 64 _c
374 64 409 79 435 109 _c
461 139 474 181 474 234 _c
474 286 461 328 435 358 _c
409 388 374 404 330 404 _c
526 713 _m
526 623 _l
501 635 476 644 451 650 _c
425 656 400 659 376 659 _c
310 659 260 637 226 593 _c
}_e{192 549 172 482 168 394 _c
187 422 211 444 240 459 _c
269 474 301 482 336 482 _c
409 482 467 459 509 415 _c
551 371 573 310 573 234 _c
573 159 550 99 506 54 _c
462 9 403 -13 330 -13 _c
246 -13 181 19 137 83 _c
92 147 70 241 70 364 _c
70 479 97 571 152 639 _c
206 707 280 742 372 742 _c
396 742 421 739 447 735 _c
472 730 498 723 526 713 _c
_cl}_e}_d
/seven{636 0 82 0 551 729 _sc
82 729 _m
551 729 _l
551 687 _l
286 0 _l
183 0 _l
432 646 _l
82 646 _l
82 729 _l
_cl}_d
/eight{{636 0 68 -13 568 742 _sc
318 346 _m
271 346 234 333 207 308 _c
180 283 167 249 167 205 _c
167 161 180 126 207 101 _c
234 76 271 64 318 64 _c
364 64 401 76 428 102 _c
455 127 469 161 469 205 _c
469 249 455 283 429 308 _c
402 333 365 346 318 346 _c
219 388 _m
177 398 144 418 120 447 _c
96 476 85 511 85 553 _c
85 611 105 657 147 691 _c
188 725 245 742 318 742 _c
}_e{390 742 447 725 489 691 _c
530 657 551 611 551 553 _c
551 511 539 476 515 447 _c
491 418 459 398 417 388 _c
464 377 501 355 528 323 _c
554 291 568 251 568 205 _c
568 134 546 80 503 43 _c
459 5 398 -13 318 -13 _c
237 -13 175 5 132 43 _c
89 80 68 134 68 205 _c
68 251 81 291 108 323 _c
134 355 171 377 219 388 _c
183 544 _m
183 506 194 476 218 455 _c
}_e{242 434 275 424 318 424 _c
360 424 393 434 417 455 _c
441 476 453 506 453 544 _c
453 582 441 611 417 632 _c
393 653 360 664 318 664 _c
275 664 242 653 218 632 _c
194 611 183 582 183 544 _c
_cl}_e}_d
/nine{{636 0 63 -13 566 742 _sc
110 15 _m
110 105 _l
134 93 159 84 185 78 _c
210 72 235 69 260 69 _c
324 69 374 90 408 134 _c
442 178 462 244 468 334 _c
448 306 424 284 396 269 _c
367 254 335 247 300 247 _c
226 247 168 269 126 313 _c
84 357 63 417 63 494 _c
63 568 85 628 129 674 _c
173 719 232 742 306 742 _c
390 742 455 709 499 645 _c
543 580 566 486 566 364 _c
}_e{566 248 538 157 484 89 _c
429 21 356 -13 264 -13 _c
239 -13 214 -10 189 -6 _c
163 -2 137 5 110 15 _c
306 324 _m
350 324 385 339 411 369 _c
437 399 450 441 450 494 _c
450 546 437 588 411 618 _c
385 648 350 664 306 664 _c
262 664 227 648 201 618 _c
175 588 162 546 162 494 _c
162 441 175 399 201 369 _c
227 339 262 324 306 324 _c
_cl}_e}_d
/D{770 0 98 0 711 729 _sc
197 648 _m
197 81 _l
316 81 _l
416 81 490 103 537 149 _c
583 195 607 267 607 365 _c
607 463 583 534 537 580 _c
490 625 416 648 316 648 _c
197 648 _l
98 729 _m
301 729 _l
442 729 546 699 612 641 _c
678 582 711 490 711 365 _c
711 239 677 147 611 88 _c
545 29 441 0 301 0 _c
98 0 _l
98 729 _l
_cl}_d
/E{632 0 98 0 568 729 _sc
98 729 _m
559 729 _l
559 646 _l
197 646 _l
197 430 _l
544 430 _l
544 347 _l
197 347 _l
197 83 _l
568 83 _l
568 0 _l
98 0 _l
98 729 _l
_cl}_d
/K{656 0 98 0 677 729 _sc
98 729 _m
197 729 _l
197 421 _l
524 729 _l
651 729 _l
289 389 _l
677 0 _l
547 0 _l
197 351 _l
197 0 _l
98 0 _l
98 729 _l
_cl}_d
/M{863 0 98 0 765 729 _sc
98 729 _m
245 729 _l
431 233 _l
618 729 _l
765 729 _l
765 0 _l
669 0 _l
669 640 _l
481 140 _l
382 140 _l
194 640 _l
194 0 _l
98 0 _l
98 729 _l
_cl}_d
/P{603 0 98 0 569 729 _sc
197 648 _m
197 374 _l
321 374 _l
367 374 402 385 427 409 _c
452 433 465 467 465 511 _c
465 555 452 588 427 612 _c
402 636 367 648 321 648 _c
197 648 _l
98 729 _m
321 729 _l
402 729 464 710 506 673 _c
548 636 569 582 569 511 _c
569 439 548 384 506 348 _c
464 311 402 293 321 293 _c
197 293 _l
197 0 _l
98 0 _l
98 729 _l
_cl}_d
/R{{695 0 98 0 666 729 _sc
444 342 _m
465 334 486 319 506 296 _c
526 272 546 240 566 199 _c
666 0 _l
560 0 _l
467 187 _l
443 235 419 268 397 284 _c
374 300 343 308 304 308 _c
197 308 _l
197 0 _l
98 0 _l
98 729 _l
321 729 _l
404 729 466 711 507 677 _c
548 642 569 589 569 519 _c
569 473 558 434 537 404 _c
515 374 484 353 444 342 _c
197 648 _m
197 389 _l
321 389 _l
}_e{368 389 404 400 428 422 _c
452 444 465 476 465 519 _c
465 561 452 593 428 615 _c
404 637 368 648 321 648 _c
197 648 _l
_cl}_e}_d
/S{{635 0 66 -13 579 742 _sc
535 705 _m
535 609 _l
497 627 462 640 429 649 _c
395 657 363 662 333 662 _c
279 662 237 651 208 631 _c
179 610 165 580 165 542 _c
165 510 174 485 194 469 _c
213 452 250 439 304 429 _c
364 417 _l
437 403 491 378 526 343 _c
561 307 579 260 579 201 _c
579 130 555 77 508 41 _c
460 5 391 -13 300 -13 _c
265 -13 228 -9 189 -2 _c
}_e{150 5 110 16 69 32 _c
69 134 _l
109 111 148 94 186 83 _c
224 71 262 66 300 66 _c
356 66 399 77 430 99 _c
460 121 476 152 476 194 _c
476 230 465 258 443 278 _c
421 298 385 313 335 323 _c
275 335 _l
201 349 148 372 115 404 _c
82 435 66 478 66 534 _c
66 598 88 649 134 686 _c
179 723 242 742 322 742 _c
356 742 390 739 426 733 _c
461 727 497 717 535 705 _c
}_e{_cl}_e}_d
/T{611 0 -2 0 614 729 _sc
-2 729 _m
614 729 _l
614 646 _l
355 646 _l
355 0 _l
256 0 _l
256 646 _l
-2 646 _l
-2 729 _l
_cl}_d
/a{{613 0 60 -13 522 560 _sc
343 275 _m
270 275 220 266 192 250 _c
164 233 150 205 150 165 _c
150 133 160 107 181 89 _c
202 70 231 61 267 61 _c
317 61 357 78 387 114 _c
417 149 432 196 432 255 _c
432 275 _l
343 275 _l
522 312 _m
522 0 _l
432 0 _l
432 83 _l
411 49 385 25 355 10 _c
325 -5 287 -13 243 -13 _c
187 -13 142 2 109 33 _c
76 64 60 106 60 159 _c
}_e{60 220 80 266 122 298 _c
163 329 224 345 306 345 _c
432 345 _l
432 354 _l
432 395 418 427 391 450 _c
364 472 326 484 277 484 _c
245 484 215 480 185 472 _c
155 464 127 453 100 439 _c
100 522 _l
132 534 164 544 195 550 _c
226 556 256 560 286 560 _c
365 560 424 539 463 498 _c
502 457 522 395 522 312 _c
_cl}_e}_d
/c{{550 0 55 -13 488 560 _sc
488 526 _m
488 442 _l
462 456 437 466 411 473 _c
385 480 360 484 334 484 _c
276 484 230 465 198 428 _c
166 391 150 339 150 273 _c
150 206 166 154 198 117 _c
230 80 276 62 334 62 _c
360 62 385 65 411 72 _c
437 79 462 90 488 104 _c
488 21 _l
462 9 436 0 410 -5 _c
383 -10 354 -13 324 -13 _c
242 -13 176 12 128 64 _c
}_e{79 115 55 185 55 273 _c
55 362 79 432 128 483 _c
177 534 244 560 330 560 _c
358 560 385 557 411 551 _c
437 545 463 537 488 526 _c
_cl}_e}_d
/e{{615 0 55 -13 562 560 _sc
562 296 _m
562 252 _l
149 252 _l
153 190 171 142 205 110 _c
238 78 284 62 344 62 _c
378 62 412 66 444 74 _c
476 82 509 95 541 113 _c
541 28 _l
509 14 476 3 442 -3 _c
408 -9 373 -13 339 -13 _c
251 -13 182 12 131 62 _c
80 112 55 181 55 268 _c
55 357 79 428 127 481 _c
175 533 241 560 323 560 _c
397 560 455 536 498 489 _c
}_e{540 441 562 377 562 296 _c
472 322 _m
471 371 457 410 431 440 _c
404 469 368 484 324 484 _c
274 484 234 469 204 441 _c
174 413 156 373 152 322 _c
472 322 _l
_cl}_e}_d
/i{278 0 94 0 184 760 _sc
94 547 _m
184 547 _l
184 0 _l
94 0 _l
94 547 _l
94 760 _m
184 760 _l
184 646 _l
94 646 _l
94 760 _l
_cl}_d
/l{278 0 94 0 184 760 _sc
94 760 _m
184 760 _l
184 0 _l
94 0 _l
94 760 _l
_cl}_d
/m{{974 0 91 0 889 560 _sc
520 442 _m
542 482 569 511 600 531 _c
631 550 668 560 711 560 _c
767 560 811 540 842 500 _c
873 460 889 403 889 330 _c
889 0 _l
799 0 _l
799 327 _l
799 379 789 418 771 444 _c
752 469 724 482 686 482 _c
639 482 602 466 575 435 _c
548 404 535 362 535 309 _c
535 0 _l
445 0 _l
445 327 _l
445 379 435 418 417 444 _c
398 469 369 482 331 482 _c
}_e{285 482 248 466 221 435 _c
194 404 181 362 181 309 _c
181 0 _l
91 0 _l
91 547 _l
181 547 _l
181 462 _l
201 495 226 520 255 536 _c
283 552 317 560 357 560 _c
397 560 430 550 458 530 _c
486 510 506 480 520 442 _c
_cl}_e}_d
/n{634 0 91 0 549 560 _sc
549 330 _m
549 0 _l
459 0 _l
459 327 _l
459 379 448 417 428 443 _c
408 469 378 482 338 482 _c
289 482 251 466 223 435 _c
195 404 181 362 181 309 _c
181 0 _l
91 0 _l
91 547 _l
181 547 _l
181 462 _l
202 494 227 519 257 535 _c
286 551 320 560 358 560 _c
420 560 468 540 500 501 _c
532 462 549 405 549 330 _c
_cl}_d
/o{612 0 55 -13 557 560 _sc
306 484 _m
258 484 220 465 192 427 _c
164 389 150 338 150 273 _c
150 207 163 156 191 118 _c
219 80 257 62 306 62 _c
354 62 392 80 420 118 _c
448 156 462 207 462 273 _c
462 337 448 389 420 427 _c
392 465 354 484 306 484 _c
306 560 _m
384 560 445 534 490 484 _c
534 433 557 363 557 273 _c
557 183 534 113 490 63 _c
445 12 384 -13 306 -13 _c
227 -13 165 12 121 63 _c
77 113 55 183 55 273 _c
55 363 77 433 121 484 _c
165 534 227 560 306 560 _c
_cl}_d
/p{{635 0 91 -207 580 560 _sc
181 82 _m
181 -207 _l
91 -207 _l
91 547 _l
181 547 _l
181 464 _l
199 496 223 520 252 536 _c
281 552 316 560 356 560 _c
422 560 476 533 518 481 _c
559 428 580 359 580 273 _c
580 187 559 117 518 65 _c
476 13 422 -13 356 -13 _c
316 -13 281 -5 252 10 _c
223 25 199 49 181 82 _c
487 273 _m
487 339 473 390 446 428 _c
418 466 381 485 334 485 _c
}_e{286 485 249 466 222 428 _c
194 390 181 339 181 273 _c
181 207 194 155 222 117 _c
249 79 286 61 334 61 _c
381 61 418 79 446 117 _c
473 155 487 207 487 273 _c
_cl}_e}_d
/r{411 0 91 0 411 560 _sc
411 463 _m
401 469 390 473 378 476 _c
366 478 353 480 339 480 _c
288 480 249 463 222 430 _c
194 397 181 350 181 288 _c
181 0 _l
91 0 _l
91 547 _l
181 547 _l
181 462 _l
199 495 224 520 254 536 _c
284 552 321 560 365 560 _c
371 560 378 559 386 559 _c
393 558 401 557 411 555 _c
411 463 _l
_cl}_d
/s{{521 0 54 -13 472 560 _sc
443 531 _m
443 446 _l
417 458 391 468 364 475 _c
336 481 308 485 279 485 _c
234 485 200 478 178 464 _c
156 450 145 430 145 403 _c
145 382 153 366 169 354 _c
185 342 217 330 265 320 _c
296 313 _l
360 299 405 279 432 255 _c
458 230 472 195 472 151 _c
472 100 452 60 412 31 _c
372 1 316 -13 246 -13 _c
216 -13 186 -10 154 -5 _c
}_e{122 0 89 8 54 20 _c
54 113 _l
87 95 120 82 152 74 _c
184 65 216 61 248 61 _c
290 61 323 68 346 82 _c
368 96 380 117 380 144 _c
380 168 371 187 355 200 _c
339 213 303 226 247 238 _c
216 245 _l
160 257 119 275 95 299 _c
70 323 58 356 58 399 _c
58 450 76 490 112 518 _c
148 546 200 560 268 560 _c
301 560 332 557 362 552 _c
391 547 418 540 443 531 _c
}_e{_cl}_e}_d
/t{392 0 27 0 368 702 _sc
183 702 _m
183 547 _l
368 547 _l
368 477 _l
183 477 _l
183 180 _l
183 135 189 106 201 94 _c
213 81 238 75 276 75 _c
368 75 _l
368 0 _l
276 0 _l
206 0 158 13 132 39 _c
106 65 93 112 93 180 _c
93 477 _l
27 477 _l
27 547 _l
93 547 _l
93 702 _l
183 702 _l
_cl}_d
/u{634 0 85 -13 543 560 _sc
85 216 _m
85 547 _l
175 547 _l
175 219 _l
175 167 185 129 205 103 _c
225 77 255 64 296 64 _c
344 64 383 79 411 110 _c
439 141 453 183 453 237 _c
453 547 _l
543 547 _l
543 0 _l
453 0 _l
453 84 _l
431 50 405 26 377 10 _c
348 -5 315 -13 277 -13 _c
214 -13 166 6 134 45 _c
101 83 85 140 85 216 _c
311 560 _m
311 560 _l
_cl}_d
/v{592 0 30 0 562 547 _sc
30 547 _m
125 547 _l
296 88 _l
467 547 _l
562 547 _l
357 0 _l
235 0 _l
30 547 _l
_cl}_d
/x{592 0 29 0 559 547 _sc
549 547 _m
351 281 _l
559 0 _l
453 0 _l
294 215 _l
135 0 _l
29 0 _l
241 286 _l
47 547 _l
153 547 _l
298 352 _l
443 547 _l
549 547 _l
_cl}_d
/y{592 0 30 -207 562 547 _sc
322 -50 _m
296 -114 271 -157 247 -177 _c
223 -197 191 -207 151 -207 _c
79 -207 _l
79 -132 _l
132 -132 _l
156 -132 175 -126 189 -114 _c
203 -102 218 -75 235 -31 _c
251 9 _l
30 547 _l
125 547 _l
296 119 _l
467 547 _l
562 547 _l
322 -50 _l
_cl}_d
/bar{337 0 127 -235 210 764 _sc
210 764 _m
210 -235 _l
127 -235 _l
127 764 _l
210 764 _l
_cl}_d
/minus{838 0 106 272 732 355 _sc
106 355 _m
732 355 _l
732 272 _l
106 272 _l
106 355 _l
_cl}_d
end readonly def

/BuildGlyph
 {exch begin
 CharStrings exch
 2 copy known not{pop /.notdef}if
 true 3 1 roll get exec
 end}_d

/BuildChar {
 1 index /Encoding get exch get
 1 index /BuildGlyph get exec
}_d

FontName currentdict end definefont pop
%!PS-Adobe-3.0 Resource-Font
%%Title: DejaVu Sans Oblique
%%Copyright: Copyright (c) 2003 by Bitstream, Inc. All Rights Reserved. Copyright (c) 2006 by Tavmjong Bah. All Rights Reserved. DejaVu changes are in public domain 
%%Creator: Converted from TrueType to type 3 by PPR
25 dict begin
/_d{bind def}bind def
/_m{moveto}_d
/_l{lineto}_d
/_cl{closepath eofill}_d
/_c{curveto}_d
/_sc{7 -1 roll{setcachedevice}{pop pop pop pop pop pop}ifelse}_d
/_e{exec}_d
/FontName /DejaVuSans-Oblique def
/PaintType 0 def
/FontMatrix[.001 0 0 .001 0 0]def
/FontBBox[-1016 -350 1659 1068]def
/FontType 3 def
/Encoding [ /x /y /sigma ] def
/FontInfo 10 dict dup begin
/FamilyName (DejaVu Sans) def
/FullName (DejaVu Sans Oblique) def
/Notice (Copyright (c) 2003 by Bitstream, Inc. All Rights Reserved. Copyright (c) 2006 by Tavmjong Bah. All Rights Reserved. DejaVu changes are in public domain ) def
/Weight (Oblique) def
/Version (Version 2.35) def
/ItalicAngle -11.0 def
/isFixedPitch false def
/UnderlinePosition -130 def
/UnderlineThickness 90 def
end readonly def
/CharStrings 3 dict dup begin
/x{592 0 -25 0 600 547 _sc
600 547 _m
349 279 _l
503 0 _l
400 0 _l
284 217 _l
83 0 _l
-25 0 _l
243 288 _l
100 547 _l
203 547 _l
308 349 _l
491 547 _l
600 547 _l
_cl}_d
/y{592 0 -24 -207 603 547 _sc
248 -50 _m
206 -120 172 -163 146 -181 _c
120 -198 86 -207 46 -207 _c
-24 -207 _l
-9 -132 _l
42 -132 _l
67 -132 88 -125 106 -111 _c
123 -97 143 -71 165 -31 _c
193 20 _l
72 547 _l
167 547 _l
258 128 _l
509 547 _l
603 547 _l
248 -50 _l
_cl}_d
/sigma{{634 0 57 -13 659 547 _sc
347 476 _m
297 476 255 458 222 422 _c
186 384 163 335 151 273 _c
138 207 142 156 163 118 _c
183 80 218 62 267 62 _c
314 62 355 81 391 119 _c
426 156 450 207 463 273 _c
474 332 470 382 450 422 _c
431 458 397 476 347 476 _c
361 547 _m
659 547 _l
642 457 _l
541 457 _l
566 406 572 345 559 273 _c
541 183 505 113 451 63 _c
396 12 329 -13 251 -13 _c
}_e{173 -13 116 12 82 63 _c
47 113 39 183 57 273 _c
74 363 110 433 164 484 _c
209 526 275 547 361 547 _c
_cl}_e}_d
end readonly def

/BuildGlyph
 {exch begin
 CharStrings exch
 2 copy known not{pop /.notdef}if
 true 3 1 roll get exec
 end}_d

/BuildChar {
 1 index /Encoding get exch get
 1 index /BuildGlyph get exec
}_d

FontName currentdict end definefont pop
end
%%EndProlog
mpldict begin
-54 108 translate
720 576 0 0 clipbox
gsave
0 0 m
720 0 l
720 576 l
0 576 l
cl
grestore
gsave
71.84 335.828 m
344.07 335.828 l
344.07 558 l
71.84 558 l
cl
1.000 setgray
fill
grestore
0.800 setlinewidth
1 setlinejoin
0 setlinecap
[] 0 setdash
0.000 setgray
gsave
/o {
gsave
newpath
translate
0.8 setlinewidth
1 setlinejoin
0 setlinecap
0 0 m
0 -3.5 l

gsave
0.000 setgray
fill
grestore
stroke
grestore
} bind def
71.84 335.828 o
grestore
/DejaVuSans findfont
12.000 scalefont
setfont
gsave
62.293125 319.703000 translate
0.000000 rotate
0.000000 0.000000 m /zero glyphshow
7.634766 0.000000 m /period glyphshow
11.449219 0.000000 m /zero glyphshow
grestore
gsave
/o {
gsave
newpath
translate
0.8 setlinewidth
1 setlinejoin
0 setlinecap
0 0 m
0 -3.5 l

gsave
0.000 setgray
fill
grestore
stroke
grestore
} bind def
139.898 335.828 o
grestore
gsave
130.350625 319.703000 translate
0.000000 rotate
0.000000 0.000000 m /zero glyphshow
7.634766 0.000000 m /period glyphshow
11.449219 0.000000 m /five glyphshow
grestore
gsave
/o {
gsave
newpath
translate
0.8 setlinewidth
1 setlinejoin
0 setlinecap
0 0 m
0 -3.5 l

gsave
0.000 setgray
fill
grestore
stroke
grestore
} bind def
207.955 335.828 o
grestore
gsave
198.408125 319.703000 translate
0.000000 rotate
0.000000 0.000000 m /one glyphshow
7.634766 0.000000 m /period glyphshow
11.449219 0.000000 m /zero glyphshow
grestore
gsave
/o {
gsave
newpath
translate
0.8 setlinewidth
1 setlinejoin
0 setlinecap
0 0 m
0 -3.5 l

gsave
0.000 setgray
fill
grestore
stroke
grestore
} bind def
276.013 335.828 o
grestore
gsave
266.465625 319.703000 translate
0.000000 rotate
0.000000 0.000000 m /one glyphshow
7.634766 0.000000 m /period glyphshow
11.449219 0.000000 m /five glyphshow
grestore
gsave
/o {
gsave
newpath
translate
0.8 setlinewidth
1 setlinejoin
0 setlinecap
0 0 m
0 -3.5 l

gsave
0.000 setgray
fill
grestore
stroke
grestore
} bind def
344.07 335.828 o
grestore
gsave
334.523125 319.703000 translate
0.000000 rotate
0.000000 0.000000 m /two glyphshow
7.634766 0.000000 m /period glyphshow
11.449219 0.000000 m /zero glyphshow
grestore
gsave
122.455000 300.203000 translate
0.000000 rotate
/DejaVuSans findfont
14.0 scalefont
setfont
0.000000 0.367188 moveto
/D glyphshow

10.780273 0.367188 moveto
/i glyphshow

14.669922 0.367188 moveto
/s glyphshow

21.963867 0.367188 moveto
/p glyphshow

30.850586 0.367188 moveto
/l glyphshow

34.740234 0.367188 moveto
/a glyphshow

43.319336 0.367188 moveto
/c glyphshow

51.016602 0.367188 moveto
/e glyphshow

59.629883 0.367188 moveto
/m glyphshow

73.267578 0.367188 moveto
/e glyphshow

81.880859 0.367188 moveto
/n glyphshow

90.753906 0.367188 moveto
/t glyphshow

96.243164 0.367188 moveto
/space glyphshow

100.693359 0.367188 moveto
/parenleft glyphshow

106.155273 0.367188 moveto
/x glyphshow

114.440430 0.367188 moveto
/one glyphshow

123.347656 0.367188 moveto
/zero glyphshow

/DejaVuSans findfont
9.799999999999999 scalefont
setfont
132.388867 5.726562 moveto
/minus glyphshow

140.600195 5.726562 moveto
/two glyphshow

/DejaVuSans findfont
14.0 scalefont
setfont
147.218066 0.367188 moveto
/space glyphshow

151.668262 0.367188 moveto
/m glyphshow

165.305957 0.367188 moveto
/parenright glyphshow


grestore
gsave
/o {
gsave
newpath
translate
0.8 setlinewidth
1 setlinejoin
0 setlinecap
0 0 m
-3.5 0 l

gsave
0.000 setgray
fill
grestore
stroke
grestore
} bind def
71.84 335.828 o
grestore
gsave
30.465000 331.265500 translate
0.000000 rotate
0.000000 0.000000 m /two glyphshow
7.634766 0.000000 m /seven glyphshow
15.269531 0.000000 m /zero glyphshow
22.904297 0.000000 m /period glyphshow
26.718750 0.000000 m /zero glyphshow
grestore
gsave
/o {
gsave
newpath
translate
0.8 setlinewidth
1 setlinejoin
0 setlinecap
0 0 m
-3.5 0 l

gsave
0.000 setgray
fill
grestore
stroke
grestore
} bind def
71.84 363.6 o
grestore
gsave
30.465000 359.037000 translate
0.000000 rotate
0.000000 0.000000 m /two glyphshow
7.634766 0.000000 m /seven glyphshow
15.269531 0.000000 m /two glyphshow
22.904297 0.000000 m /period glyphshow
26.718750 0.000000 m /five glyphshow
grestore
gsave
/o {
gsave
newpath
translate
0.8 setlinewidth
1 setlinejoin
0 setlinecap
0 0 m
-3.5 0 l

gsave
0.000 setgray
fill
grestore
stroke
grestore
} bind def
71.84 391.371 o
grestore
gsave
30.465000 386.808500 translate
0.000000 rotate
0.000000 0.000000 m /two glyphshow
7.634766 0.000000 m /seven glyphshow
15.269531 0.000000 m /five glyphshow
22.904297 0.000000 m /period glyphshow
26.718750 0.000000 m /zero glyphshow
grestore
gsave
/o {
gsave
newpath
translate
0.8 setlinewidth
1 setlinejoin
0 setlinecap
0 0 m
-3.5 0 l

gsave
0.000 setgray
fill
grestore
stroke
grestore
} bind def
71.84 419.142 o
grestore
gsave
30.465000 414.580000 translate
0.000000 rotate
0.000000 0.000000 m /two glyphshow
7.634766 0.000000 m /seven glyphshow
15.269531 0.000000 m /seven glyphshow
22.904297 0.000000 m /period glyphshow
26.718750 0.000000 m /five glyphshow
grestore
gsave
/o {
gsave
newpath
translate
0.8 setlinewidth
1 setlinejoin
0 setlinecap
0 0 m
-3.5 0 l

gsave
0.000 setgray
fill
grestore
stroke
grestore
} bind def
71.84 446.914 o
grestore
gsave
30.465000 442.351500 translate
0.000000 rotate
0.000000 0.000000 m /two glyphshow
7.634766 0.000000 m /eight glyphshow
15.269531 0.000000 m /zero glyphshow
22.904297 0.000000 m /period glyphshow
26.718750 0.000000 m /zero glyphshow
grestore
gsave
/o {
gsave
newpath
translate
0.8 setlinewidth
1 setlinejoin
0 setlinecap
0 0 m
-3.5 0 l

gsave
0.000 setgray
fill
grestore
stroke
grestore
} bind def
71.84 474.686 o
grestore
gsave
30.465000 470.123000 translate
0.000000 rotate
0.000000 0.000000 m /two glyphshow
7.634766 0.000000 m /eight glyphshow
15.269531 0.000000 m /two glyphshow
22.904297 0.000000 m /period glyphshow
26.718750 0.000000 m /five glyphshow
grestore
gsave
/o {
gsave
newpath
translate
0.8 setlinewidth
1 setlinejoin
0 setlinecap
0 0 m
-3.5 0 l

gsave
0.000 setgray
fill
grestore
stroke
grestore
} bind def
71.84 502.457 o
grestore
gsave
30.465000 497.894500 translate
0.000000 rotate
0.000000 0.000000 m /two glyphshow
7.634766 0.000000 m /eight glyphshow
15.269531 0.000000 m /five glyphshow
22.904297 0.000000 m /period glyphshow
26.718750 0.000000 m /zero glyphshow
grestore
gsave
/o {
gsave
newpath
translate
0.8 setlinewidth
1 setlinejoin
0 setlinecap
0 0 m
-3.5 0 l

gsave
0.000 setgray
fill
grestore
stroke
grestore
} bind def
71.84 530.229 o
grestore
gsave
30.465000 525.666000 translate
0.000000 rotate
0.000000 0.000000 m /two glyphshow
7.634766 0.000000 m /eight glyphshow
15.269531 0.000000 m /seven glyphshow
22.904297 0.000000 m /period glyphshow
26.718750 0.000000 m /five glyphshow
grestore
gsave
/o {
gsave
newpath
translate
0.8 setlinewidth
1 setlinejoin
0 setlinecap
0 0 m
-3.5 0 l

gsave
0.000 setgray
fill
grestore
stroke
grestore
} bind def
71.84 558 o
grestore
gsave
30.465000 553.437500 translate
0.000000 rotate
0.000000 0.000000 m /two glyphshow
7.634766 0.000000 m /nine glyphshow
15.269531 0.000000 m /zero glyphshow
22.904297 0.000000 m /period glyphshow
26.718750 0.000000 m /zero glyphshow
grestore
/DejaVuSans findfont
14.000 scalefont
setfont
gsave
23.558750 388.968687 translate
90.000000 rotate
0.000000 0.000000 m /T glyphshow
8.520508 0.000000 m /e glyphshow
17.133789 0.000000 m /m glyphshow
30.771484 0.000000 m /p glyphshow
39.658203 0.000000 m /e glyphshow
48.271484 0.000000 m /r glyphshow
54.027344 0.000000 m /a glyphshow
62.606445 0.000000 m /t glyphshow
68.095703 0.000000 m /u glyphshow
76.968750 0.000000 m /r glyphshow
82.724609 0.000000 m /e glyphshow
91.337891 0.000000 m /space glyphshow
95.788086 0.000000 m /parenleft glyphshow
101.250000 0.000000 m /K glyphshow
110.430664 0.000000 m /parenright glyphshow
grestore
3.000 setlinewidth
2 setlinecap
gsave
272.2 222.2 71.84 335.8 clipbox
71.84 369.1538 m
158.899154 369.263234 l
225.949403 429.309552 l
292.741034 489.422453 l
344.07 535.822962 l
344.07 535.822962 l
stroke
grestore
2.000 setlinewidth
0 setlinecap
gsave
272.2 222.2 71.84 335.8 clipbox
/o {
gsave
newpath
translate
2.0 setlinewidth
1 setlinejoin
0 setlinecap
0 -4 m
1.060812 -4 2.078319 -3.578535 2.828427 -2.828427 c
3.578535 -2.078319 4 -1.060812 4 0 c
4 1.060812 3.578535 2.078319 2.828427 2.828427 c
2.078319 3.578535 1.060812 4 0 4 c
-1.060812 4 -2.078319 3.578535 -2.828427 2.828427 c
-3.578535 2.078319 -4 1.060812 -4 0 c
-4 -1.060812 -3.578535 -2.078319 -2.828427 -2.828427 c
-2.078319 -3.578535 -1.060812 -4 0 -4 c
cl

stroke
grestore
} bind def
71.84 369.154 o
82.7292 369.154 o
93.6184 369.154 o
104.508 369.154 o
115.397 369.154 o
126.286 369.154 o
137.175 369.154 o
148.064 369.154 o
158.954 369.177 o
169.843 378.889 o
180.732 388.629 o
191.621 398.376 o
202.51 408.131 o
213.4 417.894 o
224.289 427.664 o
235.178 437.443 o
246.067 447.229 o
256.956 457.024 o
267.846 466.826 o
278.735 476.636 o
289.624 486.455 o
300.513 496.282 o
311.402 506.115 o
322.292 515.957 o
333.181 525.808 o
344.07 535.666 o
grestore
0.800 setlinewidth
0 setlinejoin
2 setlinecap
[] 0 setdash
gsave
71.84 335.828 m
71.84 558 l
stroke
grestore
gsave
344.07 335.828 m
344.07 558 l
stroke
grestore
gsave
71.84 335.828 m
344.07 335.828 l
stroke
grestore
gsave
71.84 558 m
344.07 558 l
stroke
grestore
3.000 setlinewidth
1 setlinejoin
[] 0 setdash
gsave
82.64 542.275 m
106.64 542.275 l
stroke
grestore
/DejaVuSans findfont
12.000 scalefont
setfont
gsave
116.240000 538.075000 translate
0.000000 rotate
0.000000 0.000000 m /S glyphshow
7.617188 0.000000 m /e glyphshow
15.000000 0.000000 m /m glyphshow
26.689453 0.000000 m /i glyphshow
30.023438 0.000000 m /hyphen glyphshow
34.353516 0.000000 m /a glyphshow
41.707031 0.000000 m /n glyphshow
49.312500 0.000000 m /a glyphshow
56.666016 0.000000 m /l glyphshow
60.000000 0.000000 m /y glyphshow
67.101562 0.000000 m /t glyphshow
71.806641 0.000000 m /i glyphshow
75.140625 0.000000 m /c glyphshow
grestore
2.000 setlinewidth
0 setlinecap
gsave
/o {
gsave
newpath
translate
2.0 setlinewidth
1 setlinejoin
0 setlinecap
0 -4 m
1.060812 -4 2.078319 -3.578535 2.828427 -2.828427 c
3.578535 -2.078319 4 -1.060812 4 0 c
4 1.060812 3.578535 2.078319 2.828427 2.828427 c
2.078319 3.578535 1.060812 4 0 4 c
-1.060812 4 -2.078319 3.578535 -2.828427 2.828427 c
-3.578535 2.078319 -4 1.060812 -4 0 c
-4 -1.060812 -3.578535 -2.078319 -2.828427 -2.828427 c
-2.078319 -3.578535 -1.060812 -4 0 -4 c
cl

stroke
grestore
} bind def
94.64 524.65 o
grestore
gsave
116.240000 520.450000 translate
0.000000 rotate
0.000000 0.000000 m /D glyphshow
9.240234 0.000000 m /E glyphshow
16.822266 0.000000 m /S glyphshow
24.439453 0.000000 m /three glyphshow
32.074219 0.000000 m /D glyphshow
grestore
gsave
425.315 335.828 m
697.545 335.828 l
697.545 558 l
425.315 558 l
cl
1.000 setgray
fill
grestore
0.800 setlinewidth
gsave
/o {
gsave
newpath
translate
0.8 setlinewidth
1 setlinejoin
0 setlinecap
0 0 m
0 -3.5 l

gsave
0.000 setgray
fill
grestore
stroke
grestore
} bind def
425.315 335.828 o
grestore
gsave
415.768125 319.703000 translate
0.000000 rotate
0.000000 0.000000 m /zero glyphshow
7.634766 0.000000 m /period glyphshow
11.449219 0.000000 m /zero glyphshow
grestore
gsave
/o {
gsave
newpath
translate
0.8 setlinewidth
1 setlinejoin
0 setlinecap
0 0 m
0 -3.5 l

gsave
0.000 setgray
fill
grestore
stroke
grestore
} bind def
493.373 335.828 o
grestore
gsave
483.825625 319.703000 translate
0.000000 rotate
0.000000 0.000000 m /zero glyphshow
7.634766 0.000000 m /period glyphshow
11.449219 0.000000 m /five glyphshow
grestore
gsave
/o {
gsave
newpath
translate
0.8 setlinewidth
1 setlinejoin
0 setlinecap
0 0 m
0 -3.5 l

gsave
0.000 setgray
fill
grestore
stroke
grestore
} bind def
561.43 335.828 o
grestore
gsave
551.883125 319.703000 translate
0.000000 rotate
0.000000 0.000000 m /one glyphshow
7.634766 0.000000 m /period glyphshow
11.449219 0.000000 m /zero glyphshow
grestore
gsave
/o {
gsave
newpath
translate
0.8 setlinewidth
1 setlinejoin
0 setlinecap
0 0 m
0 -3.5 l

gsave
0.000 setgray
fill
grestore
stroke
grestore
} bind def
629.487 335.828 o
grestore
gsave
619.940625 319.703000 translate
0.000000 rotate
0.000000 0.000000 m /one glyphshow
7.634766 0.000000 m /period glyphshow
11.449219 0.000000 m /five glyphshow
grestore
gsave
/o {
gsave
newpath
translate
0.8 setlinewidth
1 setlinejoin
0 setlinecap
0 0 m
0 -3.5 l

gsave
0.000 setgray
fill
grestore
stroke
grestore
} bind def
697.545 335.828 o
grestore
gsave
687.998125 319.703000 translate
0.000000 rotate
0.000000 0.000000 m /two glyphshow
7.634766 0.000000 m /period glyphshow
11.449219 0.000000 m /zero glyphshow
grestore
gsave
475.930000 300.203000 translate
0.000000 rotate
/DejaVuSans findfont
14.0 scalefont
setfont
0.000000 0.367188 moveto
/D glyphshow

10.780273 0.367188 moveto
/i glyphshow

14.669922 0.367188 moveto
/s glyphshow

21.963867 0.367188 moveto
/p glyphshow

30.850586 0.367188 moveto
/l glyphshow

34.740234 0.367188 moveto
/a glyphshow

43.319336 0.367188 moveto
/c glyphshow

51.016602 0.367188 moveto
/e glyphshow

59.629883 0.367188 moveto
/m glyphshow

73.267578 0.367188 moveto
/e glyphshow

81.880859 0.367188 moveto
/n glyphshow

90.753906 0.367188 moveto
/t glyphshow

96.243164 0.367188 moveto
/space glyphshow

100.693359 0.367188 moveto
/parenleft glyphshow

106.155273 0.367188 moveto
/x glyphshow

114.440430 0.367188 moveto
/one glyphshow

123.347656 0.367188 moveto
/zero glyphshow

/DejaVuSans findfont
9.799999999999999 scalefont
setfont
132.388867 5.726562 moveto
/minus glyphshow

140.600195 5.726562 moveto
/two glyphshow

/DejaVuSans findfont
14.0 scalefont
setfont
147.218066 0.367188 moveto
/space glyphshow

151.668262 0.367188 moveto
/m glyphshow

165.305957 0.367188 moveto
/parenright glyphshow


grestore
gsave
/o {
gsave
newpath
translate
0.8 setlinewidth
1 setlinejoin
0 setlinecap
0 0 m
-3.5 0 l

gsave
0.000 setgray
fill
grestore
stroke
grestore
} bind def
425.315 345.927 o
grestore
gsave
383.940000 341.364227 translate
0.000000 rotate
0.000000 0.000000 m /zero glyphshow
7.634766 0.000000 m /period glyphshow
11.449219 0.000000 m /zero glyphshow
19.083984 0.000000 m /zero glyphshow
26.718750 0.000000 m /zero glyphshow
grestore
gsave
/o {
gsave
newpath
translate
0.8 setlinewidth
1 setlinejoin
0 setlinecap
0 0 m
-3.5 0 l

gsave
0.000 setgray
fill
grestore
stroke
grestore
} bind def
425.315 385.781 o
grestore
gsave
383.940000 381.218636 translate
0.000000 rotate
0.000000 0.000000 m /zero glyphshow
7.634766 0.000000 m /period glyphshow
11.449219 0.000000 m /zero glyphshow
19.083984 0.000000 m /zero glyphshow
26.718750 0.000000 m /one glyphshow
grestore
gsave
/o {
gsave
newpath
translate
0.8 setlinewidth
1 setlinejoin
0 setlinecap
0 0 m
-3.5 0 l

gsave
0.000 setgray
fill
grestore
stroke
grestore
} bind def
425.315 425.636 o
grestore
gsave
383.940000 421.073044 translate
0.000000 rotate
0.000000 0.000000 m /zero glyphshow
7.634766 0.000000 m /period glyphshow
11.449219 0.000000 m /zero glyphshow
19.083984 0.000000 m /zero glyphshow
26.718750 0.000000 m /two glyphshow
grestore
gsave
/o {
gsave
newpath
translate
0.8 setlinewidth
1 setlinejoin
0 setlinecap
0 0 m
-3.5 0 l

gsave
0.000 setgray
fill
grestore
stroke
grestore
} bind def
425.315 465.49 o
grestore
gsave
383.940000 460.927452 translate
0.000000 rotate
0.000000 0.000000 m /zero glyphshow
7.634766 0.000000 m /period glyphshow
11.449219 0.000000 m /zero glyphshow
19.083984 0.000000 m /zero glyphshow
26.718750 0.000000 m /three glyphshow
grestore
gsave
/o {
gsave
newpath
translate
0.8 setlinewidth
1 setlinejoin
0 setlinecap
0 0 m
-3.5 0 l

gsave
0.000 setgray
fill
grestore
stroke
grestore
} bind def
425.315 505.344 o
grestore
gsave
383.940000 500.781860 translate
0.000000 rotate
0.000000 0.000000 m /zero glyphshow
7.634766 0.000000 m /period glyphshow
11.449219 0.000000 m /zero glyphshow
19.083984 0.000000 m /zero glyphshow
26.718750 0.000000 m /four glyphshow
grestore
gsave
/o {
gsave
newpath
translate
0.8 setlinewidth
1 setlinejoin
0 setlinecap
0 0 m
-3.5 0 l

gsave
0.000 setgray
fill
grestore
stroke
grestore
} bind def
425.315 545.199 o
grestore
gsave
383.940000 540.636268 translate
0.000000 rotate
0.000000 0.000000 m /zero glyphshow
7.634766 0.000000 m /period glyphshow
11.449219 0.000000 m /zero glyphshow
19.083984 0.000000 m /zero glyphshow
26.718750 0.000000 m /five glyphshow
grestore
/DejaVuSans findfont
14.000 scalefont
setfont
gsave
377.033750 384.476500 translate
90.000000 rotate
0.000000 0.000000 m /R glyphshow
9.727539 0.000000 m /e glyphshow
18.340820 0.000000 m /l glyphshow
22.230469 0.000000 m /a glyphshow
30.809570 0.000000 m /t glyphshow
36.298828 0.000000 m /i glyphshow
40.188477 0.000000 m /v glyphshow
48.473633 0.000000 m /e glyphshow
57.086914 0.000000 m /space glyphshow
61.537109 0.000000 m /E glyphshow
70.382812 0.000000 m /r glyphshow
76.138672 0.000000 m /r glyphshow
81.894531 0.000000 m /o glyphshow
90.459961 0.000000 m /r glyphshow
96.215820 0.000000 m /space glyphshow
100.666016 0.000000 m /parenleft glyphshow
106.127930 0.000000 m /percent glyphshow
119.430664 0.000000 m /parenright glyphshow
grestore
1.500 setlinewidth
2 setlinecap
gsave
272.2 222.2 425.3 335.8 clipbox
425.315 345.926727 m
430.7596 345.926727 l
436.2042 345.926727 l
441.6488 345.926727 l
447.0934 345.926727 l
452.538 345.926727 l
457.9826 345.926727 l
463.4272 345.926727 l
468.8718 345.926727 l
474.3164 345.926727 l
479.761 345.926727 l
485.2056 345.926727 l
490.6502 345.926727 l
496.0948 345.926727 l
501.5394 345.926727 l
506.984 345.926727 l
512.4286 522.995339 l
517.8732 547.901273 l
523.3178 547.647002 l
528.7624 547.052711 l
534.207 546.122091 l
539.6516 546.306984 l
545.0962 546.158264 l
550.5408 545.679585 l
555.9854 546.315852 l
561.43 545.18585 l
566.8746 545.173445 l
572.3192 544.840959 l
577.7638 545.624134 l
583.2084 544.659937 l
588.653 544.813986 l
594.0976 544.657657 l
599.5422 544.194469 l
604.9868 543.427924 l
610.4314 543.780194 l
615.876 543.831608 l
621.3206 543.585629 l
626.7652 543.045706 l
632.2098 543.625097 l
637.6544 542.505355 l
643.099 542.507343 l
648.5436 542.224627 l
653.9882 541.660584 l
659.4328 542.21746 l
664.8774 542.495369 l
670.322 541.103099 l
675.7666 542.227635 l
681.2112 541.688626 l
686.6558 540.883916 l
692.1004 541.202731 l
697.545 541.258106 l
stroke
grestore
0.800 setlinewidth
0 setlinejoin
[] 0 setdash
gsave
425.315 335.828 m
425.315 558 l
stroke
grestore
gsave
697.545 335.828 m
697.545 558 l
stroke
grestore
gsave
425.315 335.828 m
697.545 335.828 l
stroke
grestore
gsave
425.315 558 m
697.545 558 l
stroke
grestore
gsave
71.84 55.568 m
344.07 55.568 l
344.07 277.74 l
71.84 277.74 l
cl
1.000 setgray
fill
grestore
1 setlinejoin
0 setlinecap
[] 0 setdash
gsave
/o {
gsave
newpath
translate
0.8 setlinewidth
1 setlinejoin
0 setlinecap
0 0 m
0 -3.5 l

gsave
0.000 setgray
fill
grestore
stroke
grestore
} bind def
71.84 55.568 o
grestore
/DejaVuSans findfont
12.000 scalefont
setfont
gsave
62.293125 39.443000 translate
0.000000 rotate
0.000000 0.000000 m /zero glyphshow
7.634766 0.000000 m /period glyphshow
11.449219 0.000000 m /zero glyphshow
grestore
gsave
/o {
gsave
newpath
translate
0.8 setlinewidth
1 setlinejoin
0 setlinecap
0 0 m
0 -3.5 l

gsave
0.000 setgray
fill
grestore
stroke
grestore
} bind def
139.898 55.568 o
grestore
gsave
130.350625 39.443000 translate
0.000000 rotate
0.000000 0.000000 m /zero glyphshow
7.634766 0.000000 m /period glyphshow
11.449219 0.000000 m /five glyphshow
grestore
gsave
/o {
gsave
newpath
translate
0.8 setlinewidth
1 setlinejoin
0 setlinecap
0 0 m
0 -3.5 l

gsave
0.000 setgray
fill
grestore
stroke
grestore
} bind def
207.955 55.568 o
grestore
gsave
198.408125 39.443000 translate
0.000000 rotate
0.000000 0.000000 m /one glyphshow
7.634766 0.000000 m /period glyphshow
11.449219 0.000000 m /zero glyphshow
grestore
gsave
/o {
gsave
newpath
translate
0.8 setlinewidth
1 setlinejoin
0 setlinecap
0 0 m
0 -3.5 l

gsave
0.000 setgray
fill
grestore
stroke
grestore
} bind def
276.013 55.568 o
grestore
gsave
266.465625 39.443000 translate
0.000000 rotate
0.000000 0.000000 m /one glyphshow
7.634766 0.000000 m /period glyphshow
11.449219 0.000000 m /five glyphshow
grestore
gsave
/o {
gsave
newpath
translate
0.8 setlinewidth
1 setlinejoin
0 setlinecap
0 0 m
0 -3.5 l

gsave
0.000 setgray
fill
grestore
stroke
grestore
} bind def
344.07 55.568 o
grestore
gsave
334.523125 39.443000 translate
0.000000 rotate
0.000000 0.000000 m /two glyphshow
7.634766 0.000000 m /period glyphshow
11.449219 0.000000 m /zero glyphshow
grestore
gsave
122.455000 19.943000 translate
0.000000 rotate
/DejaVuSans findfont
14.0 scalefont
setfont
0.000000 0.367188 moveto
/D glyphshow

10.780273 0.367188 moveto
/i glyphshow

14.669922 0.367188 moveto
/s glyphshow

21.963867 0.367188 moveto
/p glyphshow

30.850586 0.367188 moveto
/l glyphshow

34.740234 0.367188 moveto
/a glyphshow

43.319336 0.367188 moveto
/c glyphshow

51.016602 0.367188 moveto
/e glyphshow

59.629883 0.367188 moveto
/m glyphshow

73.267578 0.367188 moveto
/e glyphshow

81.880859 0.367188 moveto
/n glyphshow

90.753906 0.367188 moveto
/t glyphshow

96.243164 0.367188 moveto
/space glyphshow

100.693359 0.367188 moveto
/parenleft glyphshow

106.155273 0.367188 moveto
/x glyphshow

114.440430 0.367188 moveto
/one glyphshow

123.347656 0.367188 moveto
/zero glyphshow

/DejaVuSans findfont
9.799999999999999 scalefont
setfont
132.388867 5.726562 moveto
/minus glyphshow

140.600195 5.726562 moveto
/two glyphshow

/DejaVuSans findfont
14.0 scalefont
setfont
147.218066 0.367188 moveto
/space glyphshow

151.668262 0.367188 moveto
/m glyphshow

165.305957 0.367188 moveto
/parenright glyphshow


grestore
gsave
/o {
gsave
newpath
translate
0.8 setlinewidth
1 setlinejoin
0 setlinecap
0 0 m
-3.5 0 l

gsave
0.000 setgray
fill
grestore
stroke
grestore
} bind def
71.84 65.6667 o
grestore
gsave
57.199375 61.104227 translate
0.000000 rotate
0.000000 0.000000 m /zero glyphshow
grestore
gsave
/o {
gsave
newpath
translate
0.8 setlinewidth
1 setlinejoin
0 setlinecap
0 0 m
-3.5 0 l

gsave
0.000 setgray
fill
grestore
stroke
grestore
} bind def
71.84 94.1668 o
grestore
gsave
57.199375 89.604284 translate
0.000000 rotate
0.000000 0.000000 m /one glyphshow
grestore
gsave
/o {
gsave
newpath
translate
0.8 setlinewidth
1 setlinejoin
0 setlinecap
0 0 m
-3.5 0 l

gsave
0.000 setgray
fill
grestore
stroke
grestore
} bind def
71.84 122.667 o
grestore
gsave
57.199375 118.104341 translate
0.000000 rotate
0.000000 0.000000 m /two glyphshow
grestore
gsave
/o {
gsave
newpath
translate
0.8 setlinewidth
1 setlinejoin
0 setlinecap
0 0 m
-3.5 0 l

gsave
0.000 setgray
fill
grestore
stroke
grestore
} bind def
71.84 151.167 o
grestore
gsave
57.199375 146.604398 translate
0.000000 rotate
0.000000 0.000000 m /three glyphshow
grestore
gsave
/o {
gsave
newpath
translate
0.8 setlinewidth
1 setlinejoin
0 setlinecap
0 0 m
-3.5 0 l

gsave
0.000 setgray
fill
grestore
stroke
grestore
} bind def
71.84 179.667 o
grestore
gsave
57.199375 175.104455 translate
0.000000 rotate
0.000000 0.000000 m /four glyphshow
grestore
gsave
/o {
gsave
newpath
translate
0.8 setlinewidth
1 setlinejoin
0 setlinecap
0 0 m
-3.5 0 l

gsave
0.000 setgray
fill
grestore
stroke
grestore
} bind def
71.84 208.167 o
grestore
gsave
57.199375 203.604512 translate
0.000000 rotate
0.000000 0.000000 m /five glyphshow
grestore
gsave
/o {
gsave
newpath
translate
0.8 setlinewidth
1 setlinejoin
0 setlinecap
0 0 m
-3.5 0 l

gsave
0.000 setgray
fill
grestore
stroke
grestore
} bind def
71.84 236.667 o
grestore
gsave
57.199375 232.104569 translate
0.000000 rotate
0.000000 0.000000 m /six glyphshow
grestore
gsave
/o {
gsave
newpath
translate
0.8 setlinewidth
1 setlinejoin
0 setlinecap
0 0 m
-3.5 0 l

gsave
0.000 setgray
fill
grestore
stroke
grestore
} bind def
71.84 265.167 o
grestore
gsave
57.199375 260.604626 translate
0.000000 rotate
0.000000 0.000000 m /seven glyphshow
grestore
/DejaVuSans findfont
16.000 scalefont
setfont
gsave
49.871250 116.443063 translate
90.000000 rotate
0.000000 0.000000 m /S glyphshow
10.156250 0.000000 m /t glyphshow
16.429688 0.000000 m /r glyphshow
23.007812 0.000000 m /e glyphshow
32.851562 0.000000 m /s glyphshow
41.187500 0.000000 m /s glyphshow
49.523438 0.000000 m /space glyphshow
54.609375 0.000000 m /parenleft glyphshow
60.851562 0.000000 m /M glyphshow
74.656250 0.000000 m /P glyphshow
84.304688 0.000000 m /a glyphshow
94.109375 0.000000 m /parenright glyphshow
grestore
3.000 setlinewidth
2 setlinecap
gsave
272.2 222.2 71.84 55.57 clipbox
71.84 65.666727 m
137.515488 129.994672 l
159.253053 151.185072 l
234.388533 198.331442 l
309.156502 245.509399 l
344.07 267.629928 l
344.07 267.629928 l
stroke
grestore
2.000 setlinewidth
0 setlinecap
gsave
272.2 222.2 71.84 55.57 clipbox
/o {
gsave
newpath
translate
2.0 setlinewidth
1 setlinejoin
0 setlinecap
0 -4 m
1.060812 -4 2.078319 -3.578535 2.828427 -2.828427 c
3.578535 -2.078319 4 -1.060812 4 0 c
4 1.060812 3.578535 2.078319 2.828427 2.828427 c
2.078319 3.578535 1.060812 4 0 4 c
-1.060812 4 -2.078319 3.578535 -2.828427 2.828427 c
-3.578535 2.078319 -4 1.060812 -4 0 c
-4 -1.060812 -3.578535 -2.078319 -2.828427 -2.828427 c
-2.078319 -3.578535 -1.060812 -4 0 -4 c
cl

stroke
grestore
} bind def
71.84 65.6667 o
82.7292 76.311 o
93.6184 86.9637 o
104.508 97.625 o
115.397 108.295 o
126.286 118.973 o
137.175 129.66 o
148.064 140.356 o
158.954 151.012 o
169.843 157.826 o
180.732 164.648 o
191.621 171.475 o
202.51 178.308 o
213.4 185.146 o
224.289 191.99 o
235.178 198.84 o
246.067 205.695 o
256.956 212.555 o
267.846 219.422 o
278.735 226.293 o
289.624 233.171 o
300.513 240.054 o
311.402 246.942 o
322.292 253.836 o
333.181 260.736 o
344.07 267.641 o
grestore
3.000 setlinewidth
2 setlinecap
0.502 setgray
gsave
272.2 222.2 71.84 55.57 clipbox
71.84 65.666727 m
159.008046 77.942466 l
245.168841 116.023609 l
330.826011 154.124961 l
344.07 160.037857 l
344.07 160.037857 l
stroke
grestore
2.000 setlinewidth
0 setlinecap
gsave
272.2 222.2 71.84 55.57 clipbox
/o {
gsave
newpath
translate
2.0 setlinewidth
1 setlinejoin
0 setlinecap
0 -4 m
1.060812 -4 2.078319 -3.578535 2.828427 -2.828427 c
3.578535 -2.078319 4 -1.060812 4 0 c
4 1.060812 3.578535 2.078319 2.828427 2.828427 c
2.078319 3.578535 1.060812 4 0 4 c
-1.060812 4 -2.078319 3.578535 -2.828427 2.828427 c
-3.578535 2.078319 -4 1.060812 -4 0 c
-4 -1.060812 -3.578535 -2.078319 -2.828427 -2.828427 c
-2.078319 -3.578535 -1.060812 -4 0 -4 c
cl

stroke
grestore
} bind def
71.84 65.6667 o
82.7292 67.1873 o
93.6184 68.7092 o
104.508 70.2322 o
115.397 71.7565 o
126.286 73.2819 o
137.175 74.8087 o
148.064 76.3366 o
158.954 77.8836 o
169.843 82.6889 o
180.732 87.4921 o
191.621 92.2991 o
202.51 97.11 o
213.4 101.925 o
224.289 106.744 o
235.178 111.566 o
246.067 116.393 o
256.956 121.223 o
267.846 126.057 o
278.735 130.896 o
289.624 135.738 o
300.513 140.584 o
311.402 145.434 o
322.292 150.288 o
333.181 155.146 o
344.07 160.008 o
grestore
0.800 setlinewidth
0 setlinejoin
2 setlinecap
[] 0 setdash
0.000 setgray
gsave
71.84 55.568 m
71.84 277.74 l
stroke
grestore
gsave
344.07 55.568 m
344.07 277.74 l
stroke
grestore
gsave
71.84 55.568 m
344.07 55.568 l
stroke
grestore
gsave
71.84 277.74 m
344.07 277.74 l
stroke
grestore
3.000 setlinewidth
1 setlinejoin
[] 0 setdash
gsave
82.64 261.14 m
106.64 261.14 l
stroke
grestore
gsave
116.240000 256.940000 translate
0.000000 rotate
/DejaVuSans findfont
12.0 scalefont
setfont
0.000000 0.828125 moveto
/bar glyphshow

/DejaVuSans-Oblique findfont
12.0 scalefont
setfont
4.042969 0.828125 moveto
/sigma glyphshow

/DejaVuSans-Oblique findfont
8.399999999999999 scalefont
setfont
11.648438 -1.140625 moveto
/x glyphshow

16.619531 -1.140625 moveto
/x glyphshow

/DejaVuSans findfont
12.0 scalefont
setfont
21.918750 0.828125 moveto
/bar glyphshow

25.961719 0.828125 moveto
/space glyphshow

29.776172 0.828125 moveto
/S glyphshow

37.393359 0.828125 moveto
/e glyphshow

44.776172 0.828125 moveto
/m glyphshow

56.465625 0.828125 moveto
/i glyphshow

59.799609 0.828125 moveto
/hyphen glyphshow

64.129688 0.828125 moveto
/a glyphshow

71.483203 0.828125 moveto
/n glyphshow

79.088672 0.828125 moveto
/a glyphshow

86.442188 0.828125 moveto
/l glyphshow

89.776172 0.828125 moveto
/y glyphshow

96.877734 0.828125 moveto
/t glyphshow

101.582813 0.828125 moveto
/i glyphshow

104.916797 0.828125 moveto
/c glyphshow


grestore
2.000 setlinewidth
0 setlinecap
gsave
/o {
gsave
newpath
translate
2.0 setlinewidth
1 setlinejoin
0 setlinecap
0 -4 m
1.060812 -4 2.078319 -3.578535 2.828427 -2.828427 c
3.578535 -2.078319 4 -1.060812 4 0 c
4 1.060812 3.578535 2.078319 2.828427 2.828427 c
2.078319 3.578535 1.060812 4 0 4 c
-1.060812 4 -2.078319 3.578535 -2.828427 2.828427 c
-3.578535 2.078319 -4 1.060812 -4 0 c
-4 -1.060812 -3.578535 -2.078319 -2.828427 -2.828427 c
-2.078319 -3.578535 -1.060812 -4 0 -4 c
cl

stroke
grestore
} bind def
94.64 243.015 o
grestore
/DejaVuSans findfont
12.000 scalefont
setfont
gsave
116.240000 238.815000 translate
0.000000 rotate
0.000000 0.000000 m /space glyphshow
3.814453 0.000000 m /space glyphshow
7.628906 0.000000 m /space glyphshow
11.443359 0.000000 m /space glyphshow
15.257812 0.000000 m /space glyphshow
19.072266 0.000000 m /space glyphshow
22.886719 0.000000 m /space glyphshow
26.701172 0.000000 m /D glyphshow
35.941406 0.000000 m /E glyphshow
43.523438 0.000000 m /S glyphshow
51.140625 0.000000 m /three glyphshow
58.775391 0.000000 m /D glyphshow
grestore
3.000 setlinewidth
2 setlinecap
0.502 setgray
gsave
82.64 224.515 m
106.64 224.515 l
stroke
grestore
0.000 setgray
gsave
116.240000 220.315000 translate
0.000000 rotate
/DejaVuSans findfont
12.0 scalefont
setfont
0.000000 0.828125 moveto
/bar glyphshow

/DejaVuSans-Oblique findfont
12.0 scalefont
setfont
4.042969 0.828125 moveto
/sigma glyphshow

/DejaVuSans-Oblique findfont
8.399999999999999 scalefont
setfont
11.648438 -1.140625 moveto
/y glyphshow

16.619531 -1.140625 moveto
/y glyphshow

/DejaVuSans findfont
12.0 scalefont
setfont
21.918750 0.828125 moveto
/bar glyphshow

25.961719 0.828125 moveto
/space glyphshow

29.776172 0.828125 moveto
/S glyphshow

37.393359 0.828125 moveto
/e glyphshow

44.776172 0.828125 moveto
/m glyphshow

56.465625 0.828125 moveto
/i glyphshow

59.799609 0.828125 moveto
/hyphen glyphshow

64.129688 0.828125 moveto
/a glyphshow

71.483203 0.828125 moveto
/n glyphshow

79.088672 0.828125 moveto
/a glyphshow

86.442188 0.828125 moveto
/l glyphshow

89.776172 0.828125 moveto
/y glyphshow

96.877734 0.828125 moveto
/t glyphshow

101.582813 0.828125 moveto
/i glyphshow

104.916797 0.828125 moveto
/c glyphshow


grestore
2.000 setlinewidth
0 setlinecap
0.502 setgray
gsave
/o {
gsave
newpath
translate
2.0 setlinewidth
1 setlinejoin
0 setlinecap
0 -4 m
1.060812 -4 2.078319 -3.578535 2.828427 -2.828427 c
3.578535 -2.078319 4 -1.060812 4 0 c
4 1.060812 3.578535 2.078319 2.828427 2.828427 c
2.078319 3.578535 1.060812 4 0 4 c
-1.060812 4 -2.078319 3.578535 -2.828427 2.828427 c
-3.578535 2.078319 -4 1.060812 -4 0 c
-4 -1.060812 -3.578535 -2.078319 -2.828427 -2.828427 c
-2.078319 -3.578535 -1.060812 -4 0 -4 c
cl

stroke
grestore
} bind def
94.64 205.39 o
grestore
0.000 setgray
gsave
116.240000 201.190000 translate
0.000000 rotate
0.000000 0.000000 m /space glyphshow
3.814453 0.000000 m /space glyphshow
7.628906 0.000000 m /space glyphshow
11.443359 0.000000 m /space glyphshow
15.257812 0.000000 m /space glyphshow
19.072266 0.000000 m /space glyphshow
22.886719 0.000000 m /space glyphshow
26.701172 0.000000 m /D glyphshow
35.941406 0.000000 m /E glyphshow
43.523438 0.000000 m /S glyphshow
51.140625 0.000000 m /three glyphshow
58.775391 0.000000 m /D glyphshow
grestore
gsave
425.315 55.568 m
697.545 55.568 l
697.545 277.74 l
425.315 277.74 l
cl
1.000 setgray
fill
grestore
0.800 setlinewidth
gsave
/o {
gsave
newpath
translate
0.8 setlinewidth
1 setlinejoin
0 setlinecap
0 0 m
0 -3.5 l

gsave
0.000 setgray
fill
grestore
stroke
grestore
} bind def
425.315 55.568 o
grestore
gsave
415.768125 39.443000 translate
0.000000 rotate
0.000000 0.000000 m /zero glyphshow
7.634766 0.000000 m /period glyphshow
11.449219 0.000000 m /zero glyphshow
grestore
gsave
/o {
gsave
newpath
translate
0.8 setlinewidth
1 setlinejoin
0 setlinecap
0 0 m
0 -3.5 l

gsave
0.000 setgray
fill
grestore
stroke
grestore
} bind def
493.373 55.568 o
grestore
gsave
483.825625 39.443000 translate
0.000000 rotate
0.000000 0.000000 m /zero glyphshow
7.634766 0.000000 m /period glyphshow
11.449219 0.000000 m /five glyphshow
grestore
gsave
/o {
gsave
newpath
translate
0.8 setlinewidth
1 setlinejoin
0 setlinecap
0 0 m
0 -3.5 l

gsave
0.000 setgray
fill
grestore
stroke
grestore
} bind def
561.43 55.568 o
grestore
gsave
551.883125 39.443000 translate
0.000000 rotate
0.000000 0.000000 m /one glyphshow
7.634766 0.000000 m /period glyphshow
11.449219 0.000000 m /zero glyphshow
grestore
gsave
/o {
gsave
newpath
translate
0.8 setlinewidth
1 setlinejoin
0 setlinecap
0 0 m
0 -3.5 l

gsave
0.000 setgray
fill
grestore
stroke
grestore
} bind def
629.487 55.568 o
grestore
gsave
619.940625 39.443000 translate
0.000000 rotate
0.000000 0.000000 m /one glyphshow
7.634766 0.000000 m /period glyphshow
11.449219 0.000000 m /five glyphshow
grestore
gsave
/o {
gsave
newpath
translate
0.8 setlinewidth
1 setlinejoin
0 setlinecap
0 0 m
0 -3.5 l

gsave
0.000 setgray
fill
grestore
stroke
grestore
} bind def
697.545 55.568 o
grestore
gsave
687.998125 39.443000 translate
0.000000 rotate
0.000000 0.000000 m /two glyphshow
7.634766 0.000000 m /period glyphshow
11.449219 0.000000 m /zero glyphshow
grestore
gsave
475.930000 19.943000 translate
0.000000 rotate
/DejaVuSans findfont
14.0 scalefont
setfont
0.000000 0.367188 moveto
/D glyphshow

10.780273 0.367188 moveto
/i glyphshow

14.669922 0.367188 moveto
/s glyphshow

21.963867 0.367188 moveto
/p glyphshow

30.850586 0.367188 moveto
/l glyphshow

34.740234 0.367188 moveto
/a glyphshow

43.319336 0.367188 moveto
/c glyphshow

51.016602 0.367188 moveto
/e glyphshow

59.629883 0.367188 moveto
/m glyphshow

73.267578 0.367188 moveto
/e glyphshow

81.880859 0.367188 moveto
/n glyphshow

90.753906 0.367188 moveto
/t glyphshow

96.243164 0.367188 moveto
/space glyphshow

100.693359 0.367188 moveto
/parenleft glyphshow

106.155273 0.367188 moveto
/x glyphshow

114.440430 0.367188 moveto
/one glyphshow

123.347656 0.367188 moveto
/zero glyphshow

/DejaVuSans findfont
9.799999999999999 scalefont
setfont
132.388867 5.726562 moveto
/minus glyphshow

140.600195 5.726562 moveto
/two glyphshow

/DejaVuSans findfont
14.0 scalefont
setfont
147.218066 0.367188 moveto
/space glyphshow

151.668262 0.367188 moveto
/m glyphshow

165.305957 0.367188 moveto
/parenright glyphshow


grestore
gsave
/o {
gsave
newpath
translate
0.8 setlinewidth
1 setlinejoin
0 setlinecap
0 0 m
-3.5 0 l

gsave
0.000 setgray
fill
grestore
stroke
grestore
} bind def
425.315 65.3401 o
grestore
gsave
391.580625 60.777579 translate
0.000000 rotate
0.000000 0.000000 m /zero glyphshow
7.634766 0.000000 m /period glyphshow
11.449219 0.000000 m /zero glyphshow
19.083984 0.000000 m /zero glyphshow
grestore
gsave
/o {
gsave
newpath
translate
0.8 setlinewidth
1 setlinejoin
0 setlinecap
0 0 m
-3.5 0 l

gsave
0.000 setgray
fill
grestore
stroke
grestore
} bind def
425.315 100.872 o
grestore
gsave
391.580625 96.309797 translate
0.000000 rotate
0.000000 0.000000 m /zero glyphshow
7.634766 0.000000 m /period glyphshow
11.449219 0.000000 m /zero glyphshow
19.083984 0.000000 m /five glyphshow
grestore
gsave
/o {
gsave
newpath
translate
0.8 setlinewidth
1 setlinejoin
0 setlinecap
0 0 m
-3.5 0 l

gsave
0.000 setgray
fill
grestore
stroke
grestore
} bind def
425.315 136.405 o
grestore
gsave
391.580625 131.842015 translate
0.000000 rotate
0.000000 0.000000 m /zero glyphshow
7.634766 0.000000 m /period glyphshow
11.449219 0.000000 m /one glyphshow
19.083984 0.000000 m /zero glyphshow
grestore
gsave
/o {
gsave
newpath
translate
0.8 setlinewidth
1 setlinejoin
0 setlinecap
0 0 m
-3.5 0 l

gsave
0.000 setgray
fill
grestore
stroke
grestore
} bind def
425.315 171.937 o
grestore
gsave
391.580625 167.374233 translate
0.000000 rotate
0.000000 0.000000 m /zero glyphshow
7.634766 0.000000 m /period glyphshow
11.449219 0.000000 m /one glyphshow
19.083984 0.000000 m /five glyphshow
grestore
gsave
/o {
gsave
newpath
translate
0.8 setlinewidth
1 setlinejoin
0 setlinecap
0 0 m
-3.5 0 l

gsave
0.000 setgray
fill
grestore
stroke
grestore
} bind def
425.315 207.469 o
grestore
gsave
391.580625 202.906451 translate
0.000000 rotate
0.000000 0.000000 m /zero glyphshow
7.634766 0.000000 m /period glyphshow
11.449219 0.000000 m /two glyphshow
19.083984 0.000000 m /zero glyphshow
grestore
gsave
/o {
gsave
newpath
translate
0.8 setlinewidth
1 setlinejoin
0 setlinecap
0 0 m
-3.5 0 l

gsave
0.000 setgray
fill
grestore
stroke
grestore
} bind def
425.315 243.001 o
grestore
gsave
391.580625 238.438669 translate
0.000000 rotate
0.000000 0.000000 m /zero glyphshow
7.634766 0.000000 m /period glyphshow
11.449219 0.000000 m /two glyphshow
19.083984 0.000000 m /five glyphshow
grestore
/DejaVuSans findfont
14.000 scalefont
setfont
gsave
384.674375 104.216500 translate
90.000000 rotate
0.000000 0.000000 m /R glyphshow
9.727539 0.000000 m /e glyphshow
18.340820 0.000000 m /l glyphshow
22.230469 0.000000 m /a glyphshow
30.809570 0.000000 m /t glyphshow
36.298828 0.000000 m /i glyphshow
40.188477 0.000000 m /v glyphshow
48.473633 0.000000 m /e glyphshow
57.086914 0.000000 m /space glyphshow
61.537109 0.000000 m /E glyphshow
70.382812 0.000000 m /r glyphshow
76.138672 0.000000 m /r glyphshow
81.894531 0.000000 m /o glyphshow
90.459961 0.000000 m /r glyphshow
96.215820 0.000000 m /space glyphshow
100.666016 0.000000 m /parenleft glyphshow
106.127930 0.000000 m /percent glyphshow
119.430664 0.000000 m /parenright glyphshow
grestore
1.500 setlinewidth
2 setlinecap
gsave
272.2 222.2 425.3 55.57 clipbox
430.7596 65.686433 m
436.2042 65.691395 l
441.6488 65.691262 l
447.0934 65.695553 l
452.538 65.698569 l
457.9826 65.666727 l
463.4272 65.688854 l
468.8718 65.709538 l
474.3164 65.689578 l
479.761 65.681475 l
485.2056 65.684077 l
490.6502 65.696617 l
496.0948 65.689356 l
501.5394 65.695308 l
506.984 65.688057 l
512.4286 77.230449 l
517.8732 74.749507 l
523.3178 74.404554 l
528.7624 74.05864 l
534.207 73.752012 l
539.6516 73.460203 l
545.0962 73.200188 l
550.5408 72.949726 l
555.9854 72.707255 l
561.43 72.488848 l
566.8746 72.27483 l
572.3192 72.064196 l
577.7638 71.888118 l
583.2084 71.696418 l
588.653 71.535339 l
594.0976 71.372342 l
599.5422 71.221466 l
604.9868 71.067171 l
610.4314 70.922944 l
615.876 70.801041 l
621.3206 70.673102 l
626.7652 70.5519 l
632.2098 70.423894 l
637.6544 70.313716 l
643.099 70.207697 l
648.5436 70.105116 l
653.9882 70.005309 l
659.4328 69.907662 l
664.8774 69.82278 l
670.322 69.727581 l
675.7666 69.643731 l
681.2112 69.559624 l
686.6558 69.485242 l
692.1004 69.409466 l
697.545 69.331963 l
stroke
grestore
0 setlinecap
[5.55 2.4] 0 setdash
gsave
272.2 222.2 425.3 55.57 clipbox
430.7596 65.690239 m
436.2042 65.697103 l
441.6488 65.693798 l
447.0934 65.667023 l
452.538 65.683356 l
457.9826 65.698414 l
463.4272 65.677992 l
468.8718 65.704786 l
474.3164 65.706468 l
479.761 65.692873 l
485.2056 65.694437 l
490.6502 65.687122 l
496.0948 65.695197 l
501.5394 65.69802 l
506.984 65.698178 l
512.4286 267.641273 l
517.8732 205.576469 l
523.3178 185.930026 l
528.7624 171.13071 l
534.207 159.585364 l
539.6516 150.314281 l
545.0962 142.720789 l
550.5408 136.349501 l
555.9854 130.980503 l
561.43 126.378453 l
566.8746 122.392642 l
572.3192 118.857436 l
577.7638 115.793769 l
583.2084 113.031712 l
588.653 110.569265 l
594.0976 108.320997 l
599.5422 106.337408 l
604.9868 104.507435 l
610.4314 102.812169 l
615.876 101.270755 l
621.3206 99.865741 l
626.7652 98.582349 l
632.2098 97.376946 l
637.6544 96.242057 l
643.099 95.200127 l
648.5436 94.24267 l
653.9882 93.308244 l
659.4328 92.473986 l
664.8774 91.65537 l
670.322 90.900998 l
675.7666 90.182122 l
681.2112 89.519714 l
686.6558 88.887213 l
692.1004 88.282893 l
697.545 87.705204 l
stroke
grestore
0.800 setlinewidth
0 setlinejoin
2 setlinecap
[] 0 setdash
gsave
425.315 55.568 m
425.315 277.74 l
stroke
grestore
gsave
697.545 55.568 m
697.545 277.74 l
stroke
grestore
gsave
425.315 55.568 m
697.545 55.568 l
stroke
grestore
gsave
425.315 277.74 m
697.545 277.74 l
stroke
grestore
1.500 setlinewidth
1 setlinejoin
[] 0 setdash
gsave
627.145 261.14 m
651.145 261.14 l
stroke
grestore
gsave
660.745000 256.940000 translate
0.000000 rotate
/DejaVuSans findfont
12.0 scalefont
setfont
0.000000 0.828125 moveto
/bar glyphshow

/DejaVuSans-Oblique findfont
12.0 scalefont
setfont
4.042969 0.828125 moveto
/sigma glyphshow

/DejaVuSans-Oblique findfont
8.399999999999999 scalefont
setfont
11.648438 -1.140625 moveto
/x glyphshow

16.619531 -1.140625 moveto
/x glyphshow

/DejaVuSans findfont
12.0 scalefont
setfont
21.918750 0.828125 moveto
/bar glyphshow


grestore
0 setlinecap
[5.55 2.4] 0 setdash
gsave
627.145 242.14 m
651.145 242.14 l
stroke
grestore
gsave
660.745000 237.940000 translate
0.000000 rotate
/DejaVuSans findfont
12.0 scalefont
setfont
0.000000 0.828125 moveto
/bar glyphshow

/DejaVuSans-Oblique findfont
12.0 scalefont
setfont
4.042969 0.828125 moveto
/sigma glyphshow

/DejaVuSans-Oblique findfont
8.399999999999999 scalefont
setfont
11.648438 -1.140625 moveto
/y glyphshow

16.619531 -1.140625 moveto
/y glyphshow

/DejaVuSans findfont
12.0 scalefont
setfont
21.918750 0.828125 moveto
/bar glyphshow


grestore

end
showpage
