<?xml version="1.0"?>
<VTKFile type="UnstructuredGrid" version="0.1" byte_order="LittleEndian" compressor="vtkZLibDataCompressor">
  <UnstructuredGrid>
    <Piece NumberOfPoints="0"                    NumberOfCells="0"                   >
      <PointData>
      </PointData>
      <CellData>
      </CellData>
      <Points>
      </Points>
      <Cells>
        <DataArray type="Int64" Name="connectivity" format="appended" RangeMin=""                     RangeMax=""                     offset="0"                   />
        <DataArray type="Int64" Name="offsets" format="appended" RangeMin=""                     RangeMax=""                     offset="16"                  />
        <DataArray type="UInt8" Name="types" format="appended" RangeMin=""                     RangeMax=""                     offset="32"                  />
      </Cells>
    </Piece>
  </UnstructuredGrid>
  <AppendedData encoding="base64">
   _AAAAAACAAAAAAAAAAAAAAACAAAAAAAAAAAAAAACAAAAAAAAA
  </AppendedData>
</VTKFile>
